%!PS-Adobe-3.0 EPSF-3.0
%%Creator: gEDA gschem 1.8.1-20121123-13-g875406c
%%CreationDate: Thu Feb 28 11:19:18 2019
%%Title: /home/jjmcd/Projects/Amateur_Radio/Schematics/dsPIC-EL-CH/dsPIC-EL-CH.sch
%%Author: jjmcd
%%BoundingBox: 0 0 1786 1144
%%Orientation: Portrait
%%Pages: 1
%%EndComments
%%BeginProlog
% Prolog for gEDA, define all the functions needed for rendering
% schematics on Postscript devices


% Draw a line from the second coordinate to the first
% x2 y2 x1 y1 width line -
/line {
    setlinewidth
    % pop off first element and moveto
    moveto
    % pop off remaining elements and draw a line segment
    lineto
    % draw it
    stroke
} bind def


% Draw a dot
% x y r dot -
/dot {
    0 360 arc fill
} bind def

% Draw a dot-dashed line, a bunch of lined segments,
% if the array element only has length two, draw a dot.
% [ [x2 y2 x1 y1] [x4 y4 x3 y3] [x5 y5] ... ] width dashed -
/width 0 def
/dashed {
    dup 2.0 div /width exch def
    setlinewidth
    % pop off each line segment and draw it as a dot or as a line
    {
	aload length 2 gt
	{ moveto lineto stroke}
	{ width dot } ifelse
    } forall
} bind def

% Draw an arc segment
% x y r ang1 ang2 width darc -
/darc {
    setlinewidth
    arc stroke
} bind def

% Draw a series of arc segment bits, if the array element only has a single
% element in it, draw a dot.
% [ [sa1 ea1] [sa2 ea2] ... ] x y r width dashedarc -
/x 0 def
/y 0 def
/dashedarc {
    dup /width exch def
    setlinewidth
    /r exch def  
    /y exch def
    /x exch def
    { aload length 1 gt
	{
	    % this element had two angles in it
	    % extract start and stop angles
	    x y r   % drop x y and r onto stack
		    % at this point we have: sa ea x y r
		    % we need                      x y r sa ea
		    % so..
	    5 -2 roll
	    % and add it to the current path, and draw it
	    arc stroke
	} {
	    % this element only had one angle in it, place a
	    % filled dot at the appropriate place
	    % compute center point of the arc using the angle
	    % that is on the top of the stack
	    dup   		% angle angle
	    cos r mul x add 	% angle x
	    exch		% x angle
	    sin r mul y add	% x y
	    width		% x y width/2
	    dot			% draw the dot
	} ifelse
    } forall

    % Now draw it
    stroke
} bind def

% Draw a box
% width height x y linethickness box -
/box {
    setlinewidth
    moveto
    exch dup 0 rlineto	 % w h, h w w 0      -- Draw bottom line
    exch 0 exch rlineto	 % h w, w h 0, w 0 h -- Draw right line 
    neg 0 rlineto	 % w, -w 0           -- Draw Top line
    closepath		 % finish and draw it
    stroke
} bind def			     

% Draw a filled box
% width height x y fbox -
/fbox {
    moveto
    exch dup 0 rlineto	
    exch 0 exch rlineto	
    neg 0 rlineto		
    closepath			
    fill			
} bind def

% Font reincoding utilities

% ISOLatin1Encoding, extended with remaining uncoded glyphs
/ISOLatin1Extended [
    /.notdef /Lslash /lslash /OE /oe /Scaron /scaron /Zcaron /zcaron
    /Ydieresis /trademark /bullet /dagger /daggerdbl /ellipsis /emdash
    /endash /fi /fl /florin /fraction /guilsinglleft /guilsinglright
    /perthousand /quotedblbase /quotedblleft /quotedblright
    /quotesinglbase /quotesingle /.notdef /.notdef /.notdef /space
    /exclam /quotedbl /numbersign /dollar /percent /ampersand
    /quoteright /parenleft /parenright /asterisk /plus /comma /minus
    /period /slash /zero /one /two /three /four /five /six /seven /eight
    /nine /colon /semicolon /less /equal /greater /question /at /A /B /C
    /D /E /F /G /H /I /J /K /L /M /N /O /P /Q /R /S /T /U /V /W /X /Y /Z
    /bracketleft /backslash /bracketright /asciicircum /underscore
    /quoteleft /a /b /c /d /e /f /g /h /i /j /k /l /m /n /o /p /q /r /s
    /t /u /v /w /x /y /z /braceleft /bar /braceright /asciitilde
    /.notdef /.notdef /.notdef /.notdef /.notdef /.notdef /.notdef
    /.notdef /.notdef /.notdef /.notdef /.notdef /.notdef /.notdef
    /.notdef /.notdef /.notdef /dotlessi /grave /acute /circumflex
    /tilde /macron /breve /dotaccent /dieresis /.notdef /ring /cedilla
    /.notdef /hungarumlaut /ogonek /caron /space /exclamdown /cent
    /sterling /currency /yen /brokenbar /section /dieresis /copyright
    /ordfeminine /guillemotleft /logicalnot /hyphen /registered /macron
    /degree /plusminus /twosuperior /threesuperior /acute /mu /paragraph
    /periodcentered /cedilla /onesuperior /ordmasculine /guillemotright
    /onequarter /onehalf /threequarters /questiondown /Agrave /Aacute
    /Acircumflex /Atilde /Adieresis /Aring /AE /Ccedilla /Egrave /Eacute
    /Ecircumflex /Edieresis /Igrave /Iacute /Icircumflex /Idieresis /Eth
    /Ntilde /Ograve /Oacute /Ocircumflex /Otilde /Odieresis /multiply
    /Oslash /Ugrave /Uacute /Ucircumflex /Udieresis /Yacute /Thorn
    /germandbls /agrave /aacute /acircumflex /atilde /adieresis /aring
    /ae /ccedilla /egrave /eacute /ecircumflex /edieresis /igrave
    /iacute /icircumflex /idieresis /eth /ntilde /ograve /oacute
    /ocircumflex /otilde /odieresis /divide /oslash /ugrave /uacute
    /ucircumflex /udieresis /yacute /thorn /ydieresis
] def

% `new-font-name' `encoding-vector' `old-font-name' RE -
/RE {
    findfont
    dup maxlength dict begin {
        1 index /FID ne { def } { pop pop } ifelse
    } forall
    /Encoding exch def
    dup /FontName exch def
    currentdict end definefont pop
} bind def

% Text handling functions, select the font and scale it, then we need
% only to apply the appropriate transformations to get the text
% justified into the right spots.  The bad thing here is that we don't
% do any kerning, so the output may look a bit strange.

% compute the height of one character and return lly and ury
% (char) charheight lly ury
/charheight {
    gsave			% push graphics state
	newpath			% clear current path
	0 0 moveto		% Set current point
	false charpath		% get path
	flattenpath		% flatten path
	pathbbox		% stack = llx lly urx ury
	exch pop		% stack = llx lly ury
	3 -1 roll pop		% stack = lly ury
    grestore			% pop graphics state
} bind def

% compute the height of a string, one character at a time
% (string) stringheight lly ury
/lly 0.0 def
/ury 0.0 def

/stringheight {
    /lly 0.0 def			% initial value of heightmin
    /ury 0.0 def			% initial value of heightmax
    {				% work through string
	( ) dup 0 4 -1 roll put	% create one character string
	charheight		% measure it's height
	dup ury gt {		% if ury gt heightmax
	    /ury exch def	% update with new value
	} {
	    pop			% else discard ury
	} ifelse
	dup lly lt {		% if lly lt heightmin
	    /lly exch def	% update with new value
	} {
	    pop			% else discard lly
	} ifelse
    } forall
    lly ury			% Return the results
} bind def

% calculate the string width taking into account the escapes.
/mystrx 0.0 def
/mystry 0.0 def
/mystresc false def

/mystringwidth {
    /mystrx 0.0 def
    /mystry 0.0 def
    /mystresc false def
    {				% work through string
	% did we process the escape character last?
	mystresc {
	    % last character was escape
	    % handle the escape
	    % is it an _ = 95?
	    dup 95 eq {
		pop  % we don't need the character anymore
		% toggle drawing overbars
		0.0 0.0 % make it like it never happened...
	    } {
		% otherwise measure the character 
		(\\ ) dup 1 4 -1 roll put % count a \ and the character
		stringwidth
	    } ifelse
	    % and reset the flag
	    /mystresc false def
	} {
	    % last character was not escape
	    % is this escape
	    dup 92 eq {
		% yes, escape character, set flag
		/mystresc true def
		pop % drop character
		0.0 0.0 % make like this character has no width and height
	    } {
		( ) dup 0 4 -1 roll put	% create one character string
		stringwidth		% measure it's height/width
	    } ifelse
	} ifelse
	% accumulate x and y movements
	mystry add /mystry exch def
	mystrx add /mystrx exch def
    } forall
    mystrx mystry % drop results on stack
} bind def

% Render a string with overbars
%
/escaped false def
/drawoverbar false def
/fontsize 0.0 def

%string1 string2 append -
/append {
    2 copy length exch length add % find new length
    string dup % string1 string2 string string
    4 2 roll % string string string1 string2
    2 index 0 3 index
    % string string string1 string2 string 0 string1
    putinterval % string string string1 string2
    exch length exch putinterval
} bind def

% If drawoverbar is set, draw a line of the same length as the given string
% string overbarshowline -
/overbarshowline {
    % print overbar if necessary
    stringwidth pop 0
    drawoverbar {
        rlineto
        gsave stroke grestore
    } {
        rmoveto
    } ifelse
} bind def

% Draws overbars for the given string, then shows the string itself
% string overbarshow
/overbarshow {
    /overbarshowacc () def
    /overbarshowtxt () def

    gsave
    fontsize 10.0 div setlinewidth
    0 fontsize rmoveto  % move to (0,overbarheight)

    {				% work through string
	escaped {
	    % the last character was the escape
	    % handle the escape
	    % is it an _ = 95?
	    dup 95 eq {
		pop  % we don't need the character anymore
                overbarshowacc overbarshowline
                % toggle drawing overbars
		/drawoverbar drawoverbar not def

                % Append the contents off the accumulator to the text
                % string we're eventually going to show
                /overbarshowtxt overbarshowtxt overbarshowacc append def

                % clear accumulator
                /overbarshowacc () def
	    } {
                % add to accumulator
                (\\ ) dup 1 4 -1 roll put
                overbarshowacc exch append
                /overbarshowacc exch def
	    } ifelse
	    % and reset the flag
	    /escaped false def
	} {
	    % check for escape character \ = 92
	    dup 92 eq {
		% yes, escape character, set flag
		/escaped true def
		pop % drop character
	    } {
                % add to accumulator
                ( ) dup 0 4 -1 roll put
                overbarshowacc exch append
                /overbarshowacc exch def
	    } ifelse
	} ifelse
    } forall
    % Catch any leftovers
    overbarshowacc overbarshowline
    overbarshowtxt overbarshowacc append

    grestore
    show
} bind def

% 
% hcenter rjustify vcenter vjustify spacing [(line1) (line2) ... ] rot x y size text -
/stringw 0.0 def
/stringh 0.0 def
/spacing 0.0 def
/strings [ ] def
/stringtxt ( ) def
/stringcount 0 def
/rot 0.0 def

/text {
    gsave	        % save state for later
    /drawoverbar false def      % start by not drawing overbars

    dup /fontsize exch def  % save font size for corrections later
    % do font selection 
    /gEDAFont findfont
    exch scalefont
    setfont

    % set up coordinates
    translate           % move origin to given point
    rotate		% rotate so that text is drawn
    0 0 moveto
    dup length /stringcount exch def			% Get number of strings
    /strings exch def     				% save strings
    /spacing exch def
    % do we have more than 1 string to render?
    stringcount 1 eq {
	/stringtxt strings aload pop def		% get the string 
	/stringw stringtxt mystringwidth pop neg def	% get the -width
	/stringh stringtxt stringheight exch pop neg def% get the -height

	% First do vertical calculations
	% hcenter rjustify vcenter vjustify 
	% vertical justification
	{ 0 stringh rmoveto } if 
	% vertical center
	{ 0 stringh 0.3571425 mul rmoveto } if  % not 0.5, so that
						% it looks nicer
	% Then do horizontal calculations
	% right justify
	{ stringw 0 rmoveto } if
	% center
	{ stringw 2.0 div 0 rmoveto } if
	% Draw the text
	stringtxt overbarshow
    } {
	% More than one line, compute bounding box for the text

	% vertical height, don't use the actual hieght of the characters
	% assume that the user wants to make the baselines line up with two
	% text boxes placed side by side
	/stringh stringcount spacing mul neg def
	% Now figure out horizontal size, this amounts to keeping track
	% of the longest string
	/stringw 0.0 def
	strings {
	    mystringwidth pop
	    dup stringw gt {
		/stringw exch def
	    } {
		pop
	    } ifelse
	} forall
	/stringw stringw neg def 	% get the -width
	
	% First do vertical calculations
	% hcenter rjustify vcenter vjustify 
	% vertical justification
	{ 0 stringh fontsize add rmoveto } if 
	% vertical center
	{ 0 stringh 0.5 mul rmoveto } if 
	% Then do horizontal calculations
	% right justify
	{ stringw 0 rmoveto } if
	% center
	{ stringw 2.0 div 0 rmoveto } if
	% now move up to the first line and begin rendering
	0 stringcount 1 sub spacing mul rmoveto
	strings {
	    gsave		% Save starting point
	    overbarshow		% render the text
	    grestore
	    0 spacing neg rmoveto
	} forall
    } ifelse
    grestore 	% Restore old state
} bind def


%%EndProlog
%%Page: 1 1
/gEDAFont ISOLatin1Extended /Helvetica RE
2 setlinecap
0.072000 0.072000 scale
0 0 translate
1.000000 1.000000 scale
-39695 -38015 translate
gsave
48400 48900 48400 49100 10 line
48400 49800 48400 49600 10 line
48200 49300 48600 49300 10 line
48200 49400 48600 49400 10 line
48400 49600 48400 49400 10 line
48400 49300 48400 49100 10 line
newpath
48400 48900
25
0 360 arc
fill
grestore
gsave
false true false true 202.222224 [(C2) ] 0 48400 49700 180.555557 text
grestore
gsave
48600 41400 48600 41600 10 line
48600 42300 48600 42100 10 line
48400 41800 48800 41800 10 line
48400 41900 48800 41900 10 line
48600 42100 48600 41900 10 line
48600 41800 48600 41600 10 line
newpath
48600 41400
25
0 360 arc
fill
newpath
48600 41400
25
0 360 arc
fill
newpath
48600 42300
25
0 360 arc
fill
newpath
48600 42300
25
0 360 arc
fill
grestore
gsave
false true false true 202.222224 [(C4) ] 0 48600 41700 180.555557 text
grestore
gsave
52100 45600 52300 45600 10 line
53000 45600 52800 45600 10 line
52500 45800 52500 45400 10 line
52600 45800 52600 45400 10 line
52800 45600 52600 45600 10 line
52500 45600 52300 45600 10 line
newpath
52100 45600
25
0 360 arc
fill
newpath
53000 45600
25
0 360 arc
fill
newpath
53000 45600
25
0 360 arc
fill
grestore
gsave
false false false false 202.222224 [(C3) ] 0 52700 45600 180.555557 text
grestore
gsave
43900 45400 44100 45400 10 line
44800 45400 44600 45400 10 line
44300 45600 44300 45200 10 line
44400 45600 44400 45200 10 line
44600 45400 44400 45400 10 line
44300 45400 44100 45400 10 line
newpath
43900 45400
25
0 360 arc
fill
grestore
gsave
false false false false 202.222224 [(C1) ] 0 44000 45400 180.555557 text
grestore
gsave
41600 45600 41500 45400 10 line
41500 45400 41400 45600 10 line
41400 45600 41300 45400 10 line
41300 45400 41200 45600 10 line
41600 45600 41700 45400 10 line
41700 45400 41750 45500 10 line
41900 45500 41750 45500 10 line
41000 45500 41152 45500 10 line
41201 45600 41150 45500 10 line
grestore
gsave
false false false false 202.222224 [(R1) ] 0 41000 45300 180.555557 text
grestore
gsave
45500 47000 45900 47000 10 line
gsave
false false false false 202.222224 [(RB14) ] 0 45955 46995 180.555557 text
grestore
gsave
false true false false 202.222224 [(1) ] 0 45805 47045 180.555557 text
grestore
45500 46800 45900 46800 10 line
gsave
false false false false 202.222224 [(RB15) ] 0 45955 46795 180.555557 text
grestore
gsave
false true false false 202.222224 [(2) ] 0 45805 46845 180.555557 text
grestore
45500 46600 45900 46600 10 line
gsave
false false false false 202.222224 [(RC12) ] 0 45955 46595 180.555557 text
grestore
gsave
false true false false 202.222224 [(3) ] 0 45805 46645 180.555557 text
grestore
45500 46400 45900 46400 10 line
gsave
false false false false 202.222224 [(RC13) ] 0 45955 46395 180.555557 text
grestore
gsave
false true false false 202.222224 [(4) ] 0 45805 46445 180.555557 text
grestore
45500 46200 45900 46200 10 line
gsave
false false false false 202.222224 [(RC14) ] 0 45955 46195 180.555557 text
grestore
gsave
false true false false 202.222224 [(5) ] 0 45805 46245 180.555557 text
grestore
45500 46000 45900 46000 10 line
gsave
false false false false 202.222224 [(RC15) ] 0 45955 45995 180.555557 text
grestore
gsave
false true false false 202.222224 [(6) ] 0 45805 46045 180.555557 text
grestore
45500 45800 45900 45800 10 line
gsave
false false false false 202.222224 [(MCLR) ] 0 45955 45795 180.555557 text
grestore
gsave
false true false false 202.222224 [(7) ] 0 45805 45845 180.555557 text
grestore
45500 45600 45900 45600 10 line
gsave
false false false false 202.222224 [(RD15) ] 0 45955 45595 180.555557 text
grestore
gsave
false true false false 202.222224 [(8) ] 0 45805 45645 180.555557 text
grestore
45500 45400 45900 45400 10 line
gsave
false false false false 202.222224 [(Vdd) ] 0 45955 45395 180.555557 text
grestore
gsave
false true false false 202.222224 [(9) ] 0 45805 45445 180.555557 text
grestore
45500 45200 45900 45200 10 line
gsave
false false false false 202.222224 [(Vss) ] 0 45955 45195 180.555557 text
grestore
gsave
false true false false 202.222224 [(10) ] 0 45805 45245 180.555557 text
grestore
45500 45000 45900 45000 10 line
gsave
false false false false 202.222224 [(RD14) ] 0 45955 44995 180.555557 text
grestore
gsave
false true false false 202.222224 [(11) ] 0 45805 45045 180.555557 text
grestore
45500 44800 45900 44800 10 line
gsave
false false false false 202.222224 [(RD13) ] 0 45955 44795 180.555557 text
grestore
gsave
false true false false 202.222224 [(12) ] 0 45805 44845 180.555557 text
grestore
45500 44600 45900 44600 10 line
gsave
false false false false 202.222224 [(RC0) ] 0 45955 44595 180.555557 text
grestore
gsave
false true false false 202.222224 [(13) ] 0 45805 44645 180.555557 text
grestore
45500 44400 45900 44400 10 line
gsave
false false false false 202.222224 [(RA0) ] 0 45955 44395 180.555557 text
grestore
gsave
false true false false 202.222224 [(14) ] 0 45805 44445 180.555557 text
grestore
45500 44200 45900 44200 10 line
gsave
false false false false 202.222224 [(RA1) ] 0 45955 44195 180.555557 text
grestore
gsave
false true false false 202.222224 [(15) ] 0 45805 44245 180.555557 text
grestore
45500 44000 45900 44000 10 line
gsave
false false false false 202.222224 [(RA2) ] 0 45955 43995 180.555557 text
grestore
gsave
false true false false 202.222224 [(16) ] 0 45805 44045 180.555557 text
grestore
47000 42700 47000 43100 10 line
gsave
false false false false 202.222224 [(RA3) ] 90 47000 43155 180.555557 text
grestore
gsave
false true false false 202.222224 [(17) ] 90 46950 43005 180.555557 text
grestore
47200 42700 47200 43100 10 line
gsave
false false false false 202.222224 [(RA4) ] 90 47200 43155 180.555557 text
grestore
gsave
false true false false 202.222224 [(18) ] 90 47150 43005 180.555557 text
grestore
47400 42700 47400 43100 10 line
gsave
false false false false 202.222224 [(AVdd) ] 90 47400 43155 180.555557 text
grestore
gsave
false true false false 202.222224 [(19) ] 90 47350 43005 180.555557 text
grestore
47600 42700 47600 43100 10 line
gsave
false false false false 202.222224 [(AVss) ] 90 47600 43155 180.555557 text
grestore
gsave
false true false false 202.222224 [(20) ] 90 47550 43005 180.555557 text
grestore
47800 42700 47800 43100 10 line
gsave
false false false false 202.222224 [(RD12) ] 90 47800 43155 180.555557 text
grestore
gsave
false true false false 202.222224 [(21) ] 90 47750 43005 180.555557 text
grestore
48000 42700 48000 43100 10 line
gsave
false false false false 202.222224 [(RC1) ] 90 48000 43155 180.555557 text
grestore
gsave
false true false false 202.222224 [(22) ] 90 47950 43005 180.555557 text
grestore
48200 42700 48200 43100 10 line
gsave
false false false false 202.222224 [(RC2) ] 90 48200 43155 180.555557 text
grestore
gsave
false true false false 202.222224 [(23) ] 90 48150 43005 180.555557 text
grestore
48400 42700 48400 43100 10 line
gsave
false false false false 202.222224 [(RC6) ] 90 48400 43155 180.555557 text
grestore
gsave
false true false false 202.222224 [(24) ] 90 48350 43005 180.555557 text
grestore
48600 42700 48600 43100 10 line
gsave
false false false false 202.222224 [(Vdd) ] 90 48600 43155 180.555557 text
grestore
gsave
false true false false 202.222224 [(25) ] 90 48550 43005 180.555557 text
grestore
48800 42700 48800 43100 10 line
gsave
false false false false 202.222224 [(Vss) ] 90 48800 43155 180.555557 text
grestore
gsave
false true false false 202.222224 [(26) ] 90 48750 43005 180.555557 text
grestore
49000 42700 49000 43100 10 line
gsave
false false false false 202.222224 [(RC3) ] 90 49000 43155 180.555557 text
grestore
gsave
false true false false 202.222224 [(27) ] 90 48950 43005 180.555557 text
grestore
49200 42700 49200 43100 10 line
gsave
false false false false 202.222224 [(OSCI/RB0) ] 90 49200 43155 180.555557 text
grestore
gsave
false true false false 202.222224 [(28) ] 90 49150 43005 180.555557 text
grestore
49400 42700 49400 43100 10 line
gsave
false false false false 202.222224 [(OSCO/RB1) ] 90 49400 43155 180.555557 text
grestore
gsave
false true false false 202.222224 [(29) ] 90 49350 43005 180.555557 text
grestore
49600 42700 49600 43100 10 line
gsave
false false false false 202.222224 [(RD11) ] 90 49600 43155 180.555557 text
grestore
gsave
false true false false 202.222224 [(30) ] 90 49550 43005 180.555557 text
grestore
49800 42700 49800 43100 10 line
gsave
false false false false 202.222224 [(RD10) ] 90 49800 43155 180.555557 text
grestore
gsave
false true false false 202.222224 [(31) ] 90 49750 43005 180.555557 text
grestore
50000 42700 50000 43100 10 line
gsave
false false false false 202.222224 [(RC7) ] 90 50000 43155 180.555557 text
grestore
gsave
false true false false 202.222224 [(32) ] 90 49950 43005 180.555557 text
grestore
51300 44000 50900 44000 10 line
gsave
false true false false 202.222224 [(RB2) ] 0 50845 43995 180.555557 text
grestore
gsave
false false false false 202.222224 [(33) ] 0 50995 44045 180.555557 text
grestore
51300 44200 50900 44200 10 line
gsave
false true false false 202.222224 [(RB3/PGD2) ] 0 50845 44195 180.555557 text
grestore
gsave
false false false false 202.222224 [(34) ] 0 50995 44245 180.555557 text
grestore
51300 44400 50900 44400 10 line
gsave
false true false false 202.222224 [(RB4/PGC2) ] 0 50845 44395 180.555557 text
grestore
gsave
false false false false 202.222224 [(35) ] 0 50995 44445 180.555557 text
grestore
51300 44600 50900 44600 10 line
gsave
false true false false 202.222224 [(RC8) ] 0 50845 44595 180.555557 text
grestore
gsave
false false false false 202.222224 [(36) ] 0 50995 44645 180.555557 text
grestore
51300 44800 50900 44800 10 line
gsave
false true false false 202.222224 [(RC9) ] 0 50845 44795 180.555557 text
grestore
gsave
false false false false 202.222224 [(37) ] 0 50995 44845 180.555557 text
grestore
51300 45000 50900 45000 10 line
gsave
false true false false 202.222224 [(RD9) ] 0 50845 44995 180.555557 text
grestore
gsave
false false false false 202.222224 [(38) ] 0 50995 45045 180.555557 text
grestore
51300 45200 50900 45200 10 line
gsave
false true false false 202.222224 [(RD8) ] 0 50845 45195 180.555557 text
grestore
gsave
false false false false 202.222224 [(39) ] 0 50995 45245 180.555557 text
grestore
51300 45400 50900 45400 10 line
gsave
false true false false 202.222224 [(Vss) ] 0 50845 45395 180.555557 text
grestore
gsave
false false false false 202.222224 [(40) ] 0 50995 45445 180.555557 text
grestore
51300 45600 50800 45600 10 line
gsave
false true false false 202.222224 [(Vdd) ] 0 50845 45595 180.555557 text
grestore
gsave
false false false false 202.222224 [(41) ] 0 50995 45645 180.555557 text
grestore
51300 45800 50900 45800 10 line
gsave
false true false false 202.222224 [(RD7) ] 0 50845 45795 180.555557 text
grestore
gsave
false false false false 202.222224 [(42) ] 0 50995 45845 180.555557 text
grestore
51300 46000 50900 46000 10 line
gsave
false true false false 202.222224 [(RD6) ] 0 50845 45995 180.555557 text
grestore
gsave
false false false false 202.222224 [(43) ] 0 50995 46045 180.555557 text
grestore
51300 46200 50900 46200 10 line
gsave
false true false false 202.222224 [(RD5/PGC3) ] 0 50845 46195 180.555557 text
grestore
gsave
false false false false 202.222224 [(44) ] 0 50995 46245 180.555557 text
grestore
51300 46400 50900 46400 10 line
gsave
false true false false 202.222224 [(RB5/PGD3) ] 0 50845 46395 180.555557 text
grestore
gsave
false false false false 202.222224 [(45) ] 0 50995 46445 180.555557 text
grestore
51300 46600 50900 46600 10 line
gsave
false true false false 202.222224 [(RB6) ] 0 50845 46595 180.555557 text
grestore
gsave
false false false false 202.222224 [(46) ] 0 50995 46645 180.555557 text
grestore
51300 46800 50900 46800 10 line
gsave
false true false false 202.222224 [(RB7/S1MCLR1) ] 0 50845 46795 180.555557 text
grestore
gsave
false false false false 202.222224 [(47) ] 0 50995 46845 180.555557 text
grestore
51300 47000 50900 47000 10 line
gsave
false true false false 202.222224 [(RB8/PGD1) ] 0 50845 46995 180.555557 text
grestore
gsave
false false false false 202.222224 [(48) ] 0 50995 47045 180.555557 text
grestore
50000 48500 50000 48100 10 line
gsave
false true false false 202.222224 [(RB9/PGC1) ] 90 50000 48045 180.555557 text
grestore
gsave
false false false false 202.222224 [(49) ] 90 49950 48195 180.555557 text
grestore
49800 48500 49800 48100 10 line
gsave
false true false false 202.222224 [(RC4) ] 90 49800 48045 180.555557 text
grestore
gsave
false false false false 202.222224 [(50) ] 90 49750 48195 180.555557 text
grestore
49600 48500 49600 48100 10 line
gsave
false true false false 202.222224 [(RC5) ] 90 49600 48045 180.555557 text
grestore
gsave
false false false false 202.222224 [(51) ] 90 49550 48195 180.555557 text
grestore
49400 48500 49400 48100 10 line
gsave
false true false false 202.222224 [(RC10) ] 90 49400 48045 180.555557 text
grestore
gsave
false false false false 202.222224 [(52) ] 90 49350 48195 180.555557 text
grestore
49200 48500 49200 48100 10 line
gsave
false true false false 202.222224 [(RC11) ] 90 49200 48045 180.555557 text
grestore
gsave
false false false false 202.222224 [(53) ] 90 49150 48195 180.555557 text
grestore
49000 48500 49000 48100 10 line
gsave
false true false false 202.222224 [(RD4) ] 90 49000 48045 180.555557 text
grestore
gsave
false false false false 202.222224 [(54) ] 90 48950 48195 180.555557 text
grestore
48800 48500 48800 48100 10 line
gsave
false true false false 202.222224 [(RD3) ] 90 48800 48045 180.555557 text
grestore
gsave
false false false false 202.222224 [(55) ] 90 48750 48195 180.555557 text
grestore
48600 48500 48600 48100 10 line
gsave
false true false false 202.222224 [(Vss) ] 90 48600 48045 180.555557 text
grestore
gsave
false false false false 202.222224 [(56) ] 90 48550 48195 180.555557 text
grestore
48400 48500 48400 48100 10 line
gsave
false true false false 202.222224 [(Vdd) ] 90 48400 48045 180.555557 text
grestore
gsave
false false false false 202.222224 [(57) ] 90 48350 48195 180.555557 text
grestore
48200 48500 48200 48100 10 line
gsave
false true false false 202.222224 [(RD2) ] 90 48200 48045 180.555557 text
grestore
gsave
false false false false 202.222224 [(58) ] 90 48150 48195 180.555557 text
grestore
48000 48500 48000 48100 10 line
gsave
false true false false 202.222224 [(RD1) ] 90 48000 48045 180.555557 text
grestore
gsave
false false false false 202.222224 [(59) ] 90 47950 48195 180.555557 text
grestore
47800 48500 47800 48100 10 line
gsave
false true false false 202.222224 [(RD0) ] 90 47800 48045 180.555557 text
grestore
gsave
false false false false 202.222224 [(60) ] 90 47750 48195 180.555557 text
grestore
47600 48500 47600 48100 10 line
gsave
false true false false 202.222224 [(RB10) ] 90 47600 48045 180.555557 text
grestore
gsave
false false false false 202.222224 [(61) ] 90 47550 48195 180.555557 text
grestore
47400 48500 47400 48100 10 line
gsave
false true false false 202.222224 [(RB11) ] 90 47400 48045 180.555557 text
grestore
gsave
false false false false 202.222224 [(62) ] 90 47350 48195 180.555557 text
grestore
47200 48500 47200 48100 10 line
gsave
false true false false 202.222224 [(RB12) ] 90 47200 48045 180.555557 text
grestore
gsave
false false false false 202.222224 [(66) ] 90 47150 48195 180.555557 text
grestore
47000 48500 47000 48100 10 line
gsave
false true false false 202.222224 [(RB13) ] 90 47000 48045 180.555557 text
grestore
gsave
false false false false 202.222224 [(64) ] 90 46950 48195 180.555557 text
grestore
45900 43100 50900 43100 10 line
50900 43100 50900 48100 10 line
50900 48100 45900 48100 10 line
45900 48100 45900 43100 10 line
45850 45800 50 0 360 10 darc
60 60 45470 44770 fbox
60 60 45470 44570 fbox
60 60 47770 42670 fbox
60 60 48370 42670 fbox
60 60 51270 46770 fbox
60 60 48970 48470 fbox
grestore
gsave
false false false false 202.222224 [(dsPIC33CH512MP506) ] 0 47195 45595 180.555557 text
grestore
gsave
false false false false 202.222224 [(U1) ] 0 46108 47662 180.555557 text
grestore
gsave
59300 41400 59500 41400 10 line
gsave
false false false false 161.777776 [(1) ] 0 59650 41400 144.444443 text
grestore
59550 41400 50 0 360 10 darc
59300 41000 59500 41000 10 line
gsave
false false false false 161.777776 [(2) ] 0 59650 41000 144.444443 text
grestore
59550 41000 50 0 360 10 darc
59600 40600 60000 40600 10 line
60000 40600 60000 41800 10 line
60000 41800 59600 41800 10 line
59600 41800 59600 40600 10 line
grestore
gsave
false true false false 202.222224 [(J2) ] 0 60000 41900 180.555557 text
grestore
gsave
gsave
false true false false 161.777776 [(IN) ] 0 42400 40400 144.444443 text
grestore
gsave
false true false false 161.777776 [(OUT) ] 0 41852 40400 144.444443 text
grestore
gsave
false true false false 161.777776 [(AMS1117) ] 0 41900 39900 144.444443 text
grestore
41500 40100 42500 40100 10 line
42500 40100 42500 40700 10 line
42500 40700 41500 40700 10 line
41500 40700 41500 40100 10 line
gsave
false true false false 161.777776 [(GND) ] 0 42144 40201 144.444443 text
grestore
42500 40400 42800 40400 10 line
gsave
false true false false 161.777776 [(3) ] 0 42700 40450 144.444443 text
grestore
42000 39800 42000 40100 10 line
gsave
false true false false 161.777776 [(1) ] 0 42100 39900 144.444443 text
grestore
41500 40400 41200 40400 10 line
gsave
false true false false 161.777776 [(2) ] 0 41370 40450 144.444443 text
grestore
newpath
42800 40400
25
0 360 arc
fill
grestore
gsave
false false false false 202.222224 [(U2) ] 0 42200 40700 180.555557 text
grestore
gsave
41000 40400 41000 40200 10 line
41000 39500 41000 39700 10 line
41200 40000 40800 40000 10 line
41200 39900 40800 39900 10 line
41000 39700 41000 39900 10 line
41000 40000 41000 40200 10 line
newpath
41000 40400
25
0 360 arc
fill
newpath
41000 39500
25
0 360 arc
fill
newpath
41000 39500
25
0 360 arc
fill
grestore
gsave
false false false false 202.222224 [(C8) ] 0 40700 40100 180.555557 text
grestore
gsave
42800 40400 42800 40200 10 line
42800 39500 42800 39700 10 line
43000 40000 42600 40000 10 line
43000 39900 42600 39900 10 line
42800 39700 42800 39900 10 line
42800 40000 42800 40200 10 line
newpath
42800 40400
25
0 360 arc
fill
newpath
42800 39500
25
0 360 arc
fill
newpath
42800 39500
25
0 360 arc
fill
grestore
gsave
false false false false 202.222224 [(C9) ] 0 43000 40100 180.555557 text
grestore
gsave
41600 41600 41500 41400 10 line
41500 41400 41400 41600 10 line
41400 41600 41300 41400 10 line
41300 41400 41200 41600 10 line
41600 41600 41700 41400 10 line
41700 41400 41750 41500 10 line
41900 41500 41750 41500 10 line
41000 41500 41152 41500 10 line
41201 41600 41150 41500 10 line
newpath
41900 41500
25
0 360 arc
fill
newpath
41900 41500
25
0 360 arc
fill
grestore
gsave
false false false false 202.222224 [(R2) ] 0 41200 41600 180.555557 text
grestore
41000 40400 41000 41000 10 line
41900 41000 41900 45500 10 line
41000 41000 42900 41000 10 line
40100 39500 40100 42600 10 line
40100 39500 43500 39500 10 line
42000 39800 42000 39500 10 line
41000 40400 41200 40400 10 line
46600 39200 46600 40400 10 line
42800 40400 58000 40400 10 line
46200 40600 46200 39200 10 line
47400 39200 47000 39200 10 line
47000 39200 47000 40100 10 line
47000 40100 43500 40100 10 line
43500 40100 43500 39500 10 line
40100 42600 41300 42600 10 line
41300 42600 41300 44700 10 line
40800 44700 42100 44700 10 line
40800 45100 41900 45100 10 line
44800 45400 45500 45400 10 line
45500 45200 44600 45200 10 line
44600 45200 44600 45100 10 line
44600 45100 43900 45100 10 line
43900 41400 43900 45400 10 line
45500 45600 44500 45600 10 line
44500 45600 44500 50400 10 line
45500 45800 40800 45800 10 line
40800 45500 40800 46300 10 line
40800 45500 41000 45500 10 line
42100 44700 42100 47100 10 line
42100 45400 43900 45400 10 line
45500 45000 44900 45000 10 line
44900 45000 44900 50400 10 line
gsave
59000 43600 59300 43600 10 line
gsave
false false false false 161.777776 [(1) ] 0 59100 43650 144.444443 text
grestore
59500 42200 59500 42500 10 line
gsave
false true false false 161.777776 [(5) ] 90 59450 42405 144.444443 text
grestore
59000 43000 59300 43000 10 line
gsave
false false false false 161.777776 [(3) ] 0 59100 43050 144.444443 text
grestore
59900 42500 59900 42200 10 line
gsave
false true false false 161.777776 [(6) ] 90 59850 42405 144.444443 text
grestore
59300 42700 59000 42700 10 line
gsave
false true false false 161.777776 [(4) ] 0 59205 42745 144.444443 text
grestore
59300 43300 59000 43300 10 line
gsave
false true false false 161.777776 [(2) ] 0 59205 43345 144.444443 text
grestore
59300 42500 60100 42500 10 line
60100 42500 60100 43800 10 line
60100 43800 59300 43800 10 line
59300 43800 59300 42500 10 line
gsave
false false false false 161.777776 [(Vbus) ] 0 59300 43600 144.444443 text
grestore
gsave
false false false false 161.777776 [(D+) ] 0 59300 43300 144.444443 text
grestore
gsave
false false false false 161.777776 [(D-) ] 0 59300 43000 144.444443 text
grestore
gsave
false false false false 161.777776 [(Gnd) ] 0 59300 42700 144.444443 text
grestore
gsave
false false false false 161.777776 [(MT1) ] 0 59300 42500 144.444443 text
grestore
gsave
false false false false 161.777776 [(MT2) ] 0 59800 42500 144.444443 text
grestore
newpath
59500 42200
25
0 360 arc
fill
newpath
59500 42200
25
0 360 arc
fill
60 60 58970 42970 fbox
60 60 58970 43270 fbox
grestore
gsave
false false false false 202.222224 [(J1) ] 0 59600 43900 180.555557 text
grestore
59000 41400 59000 42700 10 line
59000 42200 59900 42200 10 line
gsave
57700 50900 57700 51100 10 line
57700 51800 57700 51600 10 line
57600 51300 57700 51400 10 line
57700 51400 57800 51300 10 line
57600 51300 57800 51300 10 line
57600 51400 57800 51400 10 line
57700 51400 57700 51600 10 line
57700 51300 57700 51100 10 line
57560 51330 57460 51430 10 line
57460 51430 57490 51380 10 line
57460 51430 57510 51400 10 line
57560 51400 57460 51500 10 line
57460 51500 57490 51450 10 line
57460 51500 57510 51470 10 line
grestore
gsave
false true false true 202.222224 [(D3) ] 0 57700 51700 180.555557 text
grestore
gsave
58200 50900 58200 51100 10 line
58200 51800 58200 51600 10 line
58100 51300 58200 51400 10 line
58200 51400 58300 51300 10 line
58100 51300 58300 51300 10 line
58100 51400 58300 51400 10 line
58200 51400 58200 51600 10 line
58200 51300 58200 51100 10 line
58060 51330 57960 51430 10 line
57960 51430 57990 51380 10 line
57960 51430 58010 51400 10 line
58060 51400 57960 51500 10 line
57960 51500 57990 51450 10 line
57960 51500 58010 51470 10 line
grestore
gsave
false true false true 202.222224 [(D2) ] 0 58200 51700 180.555557 text
grestore
gsave
58700 50900 58700 51100 10 line
58700 51800 58700 51600 10 line
58600 51300 58700 51400 10 line
58700 51400 58800 51300 10 line
58600 51300 58800 51300 10 line
58600 51400 58800 51400 10 line
58700 51400 58700 51600 10 line
58700 51300 58700 51100 10 line
58560 51330 58460 51430 10 line
58460 51430 58490 51380 10 line
58460 51430 58510 51400 10 line
58560 51400 58460 51500 10 line
58460 51500 58490 51450 10 line
58460 51500 58510 51470 10 line
grestore
gsave
false true false true 202.222224 [(D1) ] 0 58700 51700 180.555557 text
grestore
gsave
45000 39200 45000 39000 10 line
gsave
false true false false 161.777776 [(A6) ] 90 45005 38845 144.444443 text
grestore
45000 38950 50 0 360 10 darc
45400 39200 45400 39000 10 line
gsave
false true false false 161.777776 [(A7) ] 90 45405 38845 144.444443 text
grestore
45400 38950 50 0 360 10 darc
45800 39200 45800 39000 10 line
gsave
false true false false 161.777776 [(Reset) ] 90 45805 38845 144.444443 text
grestore
45800 38950 50 0 360 10 darc
46200 39200 46200 39000 10 line
gsave
false true false false 161.777776 [(+3.3) ] 90 46205 38845 144.444443 text
grestore
46200 38950 50 0 360 10 darc
46600 39200 46600 39000 10 line
gsave
false true false false 161.777776 [(+5) ] 90 46605 38845 144.444443 text
grestore
46600 38950 50 0 360 10 darc
47000 39200 47000 39000 10 line
gsave
false true false false 161.777776 [(Gnd) ] 90 47005 38845 144.444443 text
grestore
47000 38950 50 0 360 10 darc
47400 39200 47400 39000 10 line
gsave
false true false false 161.777776 [(Gnd) ] 90 47405 38845 144.444443 text
grestore
47400 38950 50 0 360 10 darc
47800 39200 47800 39000 10 line
gsave
false true false false 161.777776 [(Vin) ] 90 47805 38845 144.444443 text
grestore
47800 38950 50 0 360 10 darc
44600 38500 48200 38500 10 line
48200 38500 48200 38900 10 line
48200 38900 44600 38900 10 line
44600 38900 44600 38500 10 line
newpath
47000 39200
25
0 360 arc
fill
60 60 47770 39170 fbox
grestore
gsave
false true false true 202.222224 [(J4) ] 0 44600 38900 180.555557 text
grestore
gsave
50000 39200 50000 39000 10 line
gsave
false true false false 161.777776 [(A0) ] 90 50005 38845 144.444443 text
grestore
50000 38950 50 0 360 10 darc
50400 39200 50400 39000 10 line
gsave
false true false false 161.777776 [(A1) ] 90 50405 38845 144.444443 text
grestore
50400 38950 50 0 360 10 darc
50800 39200 50800 39000 10 line
gsave
false true false false 161.777776 [(A2) ] 90 50805 38845 144.444443 text
grestore
50800 38950 50 0 360 10 darc
51200 39200 51200 39000 10 line
gsave
false true false false 161.777776 [(A3) ] 90 51205 38845 144.444443 text
grestore
51200 38950 50 0 360 10 darc
51600 39200 51600 39000 10 line
gsave
false true false false 161.777776 [(A4) ] 90 51605 38845 144.444443 text
grestore
51600 38950 50 0 360 10 darc
52000 39200 52000 39000 10 line
gsave
false true false false 161.777776 [(A5) ] 90 52005 38845 144.444443 text
grestore
52000 38950 50 0 360 10 darc
52400 39200 52400 39000 10 line
gsave
false true false false 161.777776 [(A6) ] 90 52405 38845 144.444443 text
grestore
52400 38950 50 0 360 10 darc
52800 39200 52800 39000 10 line
gsave
false true false false 161.777776 [(A7) ] 90 52805 38845 144.444443 text
grestore
52800 38950 50 0 360 10 darc
49600 38500 53200 38500 10 line
53200 38500 53200 38900 10 line
53200 38900 49600 38900 10 line
49600 38900 49600 38500 10 line
grestore
gsave
false true false true 202.222224 [(J5) ] 0 49600 38900 180.555557 text
grestore
gsave
45400 53050 50 0 360 10 darc
45800 52800 45800 53000 10 line
gsave
false false false false 161.777776 [(2) ] 90 45800 53150 144.444443 text
grestore
gsave
false false false false 202.222224 [(Vdd) ] 90 45700 52800 180.555557 text
grestore
45800 53050 50 0 360 10 darc
46200 52800 46200 53000 10 line
gsave
false false false false 161.777776 [(3) ] 90 46200 53150 144.444443 text
grestore
gsave
false false false false 202.222224 [(V0) ] 90 46100 52800 180.555557 text
grestore
46200 53050 50 0 360 10 darc
46600 52800 46600 53000 10 line
gsave
false false false false 161.777776 [(4) ] 90 46600 53150 144.444443 text
grestore
gsave
false false false false 202.222224 [(RS) ] 90 46500 52800 180.555557 text
grestore
46600 53050 50 0 360 10 darc
47000 52800 47000 53000 10 line
gsave
false false false false 161.777776 [(5) ] 90 47000 53150 144.444443 text
grestore
gsave
false false false false 202.222224 [(RW) ] 90 46900 52800 180.555557 text
grestore
47000 53050 50 0 360 10 darc
47400 52800 47400 53000 10 line
gsave
false false false false 161.777776 [(6) ] 90 47400 53150 144.444443 text
grestore
gsave
false false false false 202.222224 [(E) ] 90 47300 52800 180.555557 text
grestore
47400 53050 50 0 360 10 darc
47800 52800 47800 53000 10 line
gsave
false false false false 161.777776 [(7) ] 90 47800 53150 144.444443 text
grestore
gsave
false false false false 202.222224 [(DB0) ] 90 47700 52800 180.555557 text
grestore
47800 53050 50 0 360 10 darc
48200 52800 48200 53000 10 line
gsave
false false false false 161.777776 [(8) ] 90 48200 53150 144.444443 text
grestore
gsave
false false false false 202.222224 [(DB1) ] 90 48100 52800 180.555557 text
grestore
48200 53050 50 0 360 10 darc
48600 52800 48600 53000 10 line
gsave
false false false false 161.777776 [(9) ] 90 48600 53150 144.444443 text
grestore
gsave
false false false false 202.222224 [(DB2) ] 90 48500 52800 180.555557 text
grestore
48600 53050 50 0 360 10 darc
49000 52800 49000 53000 10 line
gsave
false false false false 161.777776 [(10) ] 90 49000 53150 144.444443 text
grestore
gsave
false false false false 202.222224 [(DB3) ] 90 48900 52800 180.555557 text
grestore
49000 53050 50 0 360 10 darc
49400 52800 49400 53000 10 line
gsave
false false false false 161.777776 [(11) ] 90 49400 53150 144.444443 text
grestore
gsave
false false false false 202.222224 [(DB4) ] 90 49300 52800 180.555557 text
grestore
49400 53050 50 0 360 10 darc
49800 52800 49800 53000 10 line
gsave
false false false false 161.777776 [(12) ] 90 49800 53150 144.444443 text
grestore
gsave
false false false false 202.222224 [(DB5) ] 90 49700 52800 180.555557 text
grestore
49800 53050 50 0 360 10 darc
50200 52800 50200 53000 10 line
gsave
false false false false 161.777776 [(13) ] 90 50200 53150 144.444443 text
grestore
gsave
false false false false 202.222224 [(DB6) ] 90 50100 52800 180.555557 text
grestore
50200 53050 50 0 360 10 darc
50600 52800 50600 53000 10 line
gsave
false false false false 161.777776 [(14) ] 90 50600 53150 144.444443 text
grestore
gsave
false false false false 202.222224 [(DB7) ] 90 50500 52800 180.555557 text
grestore
50600 53050 50 0 360 10 darc
51000 52800 51000 53000 10 line
gsave
false false false false 161.777776 [(15) ] 90 51000 53150 144.444443 text
grestore
gsave
false false false false 202.222224 [(L+) ] 90 50900 52800 180.555557 text
grestore
51000 53050 50 0 360 10 darc
51400 52800 51400 53000 10 line
gsave
false false false false 161.777776 [(16) ] 90 51400 53150 144.444443 text
grestore
gsave
false false false false 202.222224 [(L-) ] 90 51300 52800 180.555557 text
grestore
51400 53050 50 0 360 10 darc
45000 53100 51800 53100 10 line
51800 53100 51800 53500 10 line
51800 53500 45000 53500 10 line
45000 53500 45000 53100 10 line
45400 52800 45400 53000 10 line
gsave
false false false false 202.222224 [(Vss) ] 90 45305 52755 180.555557 text
grestore
gsave
false true false false 202.222224 [(1) ] 90 45455 53205 180.555557 text
grestore
60 60 47770 52770 fbox
60 60 48170 52770 fbox
60 60 48570 52770 fbox
60 60 48970 52770 fbox
grestore
gsave
false false false true 202.222224 [(J3) ] 0 44800 53500 180.555557 text
grestore
gsave
41300 50400 41300 50600 10 line
gsave
false false false false 161.777776 [(SCL) ] 90 41300 50750 144.444443 text
grestore
41300 50650 50 0 360 10 darc
41700 50400 41700 50600 10 line
gsave
false false false false 161.777776 [(SDA) ] 90 41700 50750 144.444443 text
grestore
41700 50650 50 0 360 10 darc
42100 50400 42100 50600 10 line
gsave
false false false false 161.777776 [(AVdd) ] 90 42100 50750 144.444443 text
grestore
42100 50650 50 0 360 10 darc
42500 50400 42500 50600 10 line
gsave
false false false false 161.777776 [(Gnd) ] 90 42500 50750 144.444443 text
grestore
42500 50650 50 0 360 10 darc
42900 50400 42900 50600 10 line
gsave
false false false false 161.777776 [(13) ] 90 42900 50750 144.444443 text
grestore
42900 50650 50 0 360 10 darc
43300 50400 43300 50600 10 line
gsave
false false false false 161.777776 [(12) ] 90 43300 50750 144.444443 text
grestore
43300 50650 50 0 360 10 darc
43700 50400 43700 50600 10 line
gsave
false false false false 161.777776 [(11) ] 90 43700 50750 144.444443 text
grestore
43700 50650 50 0 360 10 darc
44100 50400 44100 50600 10 line
gsave
false false false false 161.777776 [(10) ] 90 44100 50750 144.444443 text
grestore
44100 50650 50 0 360 10 darc
44500 50400 44500 50600 10 line
gsave
false false false false 161.777776 [(9) ] 90 44500 50750 144.444443 text
grestore
44500 50650 50 0 360 10 darc
44900 50400 44900 50600 10 line
gsave
false false false false 161.777776 [(8) ] 90 44900 50750 144.444443 text
grestore
44900 50650 50 0 360 10 darc
40900 50700 45300 50700 10 line
45300 50700 45300 51100 10 line
45300 51100 40900 51100 10 line
40900 51100 40900 50700 10 line
60 60 41270 50370 fbox
60 60 41670 50370 fbox
grestore
gsave
false false false true 202.222224 [(J7) ] 0 40700 51100 180.555557 text
grestore
gsave
50100 50200 50100 50400 10 line
gsave
false false false false 161.777776 [(7) ] 90 50100 50550 144.444443 text
grestore
50100 50450 50 0 360 10 darc
50500 50200 50500 50400 10 line
gsave
false false false false 161.777776 [(6) ] 90 50500 50550 144.444443 text
grestore
50500 50450 50 0 360 10 darc
50900 50200 50900 50400 10 line
gsave
false false false false 161.777776 [(5) ] 90 50900 50550 144.444443 text
grestore
50900 50450 50 0 360 10 darc
51300 50200 51300 50400 10 line
gsave
false false false false 161.777776 [(4) ] 90 51300 50550 144.444443 text
grestore
51300 50450 50 0 360 10 darc
51700 50200 51700 50400 10 line
gsave
false false false false 161.777776 [(3) ] 90 51700 50550 144.444443 text
grestore
51700 50450 50 0 360 10 darc
52100 50200 52100 50400 10 line
gsave
false false false false 161.777776 [(2) ] 90 52100 50550 144.444443 text
grestore
52100 50450 50 0 360 10 darc
52500 50200 52500 50400 10 line
gsave
false false false false 161.777776 [(1 Tx) ] 90 52500 50550 144.444443 text
grestore
52500 50450 50 0 360 10 darc
52900 50200 52900 50400 10 line
gsave
false false false false 161.777776 [(0 Rx) ] 90 52900 50550 144.444443 text
grestore
52900 50450 50 0 360 10 darc
49700 50500 53300 50500 10 line
53300 50500 53300 50900 10 line
53300 50900 49700 50900 10 line
49700 50900 49700 50500 10 line
grestore
gsave
false false false true 202.222224 [(J6) ] 0 49500 50900 180.555557 text
grestore
48700 48900 48600 48900 10 line
48400 49800 53400 49800 10 line
48700 48900 48700 49800 10 line
51300 45600 52100 45600 10 line
51300 45400 52200 45400 10 line
52200 45400 52200 45300 10 line
52200 45300 53000 45300 10 line
53000 45300 53000 49800 10 line
48600 42300 48600 42700 10 line
48600 41400 59300 41400 10 line
48900 41400 48900 42100 10 line
48900 42100 48800 42100 10 line
48800 42700 48800 42100 10 line
44100 50400 44100 46000 10 line
44100 46000 45500 46000 10 line
43700 50400 43700 46200 10 line
43700 46200 45500 46200 10 line
43300 50400 43300 46400 10 line
43300 46400 45500 46400 10 line
42900 50400 42900 46600 10 line
42900 46600 45500 46600 10 line
gsave
54000 50200 54000 50400 10 line
gsave
false false false false 161.777776 [(14) ] 90 54000 50550 144.444443 text
grestore
54000 50450 50 0 360 10 darc
54400 50200 54400 50400 10 line
gsave
false false false false 161.777776 [(15) ] 90 54400 50550 144.444443 text
grestore
54400 50450 50 0 360 10 darc
54800 50200 54800 50400 10 line
gsave
false false false false 161.777776 [(16) ] 90 54800 50550 144.444443 text
grestore
54800 50450 50 0 360 10 darc
55200 50200 55200 50400 10 line
gsave
false false false false 161.777776 [(17) ] 90 55200 50550 144.444443 text
grestore
55200 50450 50 0 360 10 darc
55600 50200 55600 50400 10 line
gsave
false false false false 161.777776 [(18) ] 90 55600 50550 144.444443 text
grestore
55600 50450 50 0 360 10 darc
56000 50200 56000 50400 10 line
gsave
false false false false 161.777776 [(19) ] 90 56000 50550 144.444443 text
grestore
56000 50450 50 0 360 10 darc
56400 50200 56400 50400 10 line
gsave
false false false false 161.777776 [(20) ] 90 56400 50550 144.444443 text
grestore
56400 50450 50 0 360 10 darc
56800 50200 56800 50400 10 line
gsave
false false false false 161.777776 [(21) ] 90 56800 50550 144.444443 text
grestore
56800 50450 50 0 360 10 darc
53600 50500 57200 50500 10 line
57200 50500 57200 50900 10 line
57200 50900 53600 50900 10 line
53600 50900 53600 50500 10 line
newpath
55600 50200
25
0 360 arc
fill
newpath
55600 50200
25
0 360 arc
fill
grestore
gsave
false false false true 202.222224 [(J8) ] 0 53400 50900 180.555557 text
grestore
45500 46800 45000 46800 10 line
45000 46800 45000 49400 10 line
46100 52100 50600 52100 10 line
50600 52100 50600 52800 10 line
46100 52100 46100 49400 10 line
46100 49400 45000 49400 10 line
50200 52800 50200 51900 10 line
46300 51900 50200 51900 10 line
45100 47000 45100 48900 10 line
45500 47000 45100 47000 10 line
45100 48900 46300 48900 10 line
46300 48900 46300 51900 10 line
47000 48500 47000 51700 10 line
47000 51700 49800 51700 10 line
49800 52800 49800 51700 10 line
49400 52800 49400 51500 10 line
47200 51500 49400 51500 10 line
47200 51500 47200 48500 10 line
47400 48500 47400 52800 10 line
47600 48500 47600 51300 10 line
46600 51300 47600 51300 10 line
46600 51300 46600 52800 10 line
gsave
52600 52500 52900 52500 10 line
gsave
false false false false 161.777776 [(1) ] 0 52700 52550 144.444443 text
grestore
52600 52100 52900 52100 10 line
gsave
false false false false 161.777776 [(2) ] 0 52700 52150 144.444443 text
grestore
52600 51700 52900 51700 10 line
gsave
false false false false 161.777776 [(3) ] 0 52700 51750 144.444443 text
grestore
52900 51500 53300 51500 10 line
53300 51500 53300 52700 10 line
53300 52700 52900 52700 10 line
52900 52700 52900 51500 10 line
52900 51500 53300 51500 10 line
52900 52300 53300 52300 10 line
52900 51900 53300 51900 10 line
grestore
gsave
false false false false 202.222224 [(JP1) ] 0 53000 52800 180.555557 text
grestore
gsave
42100 53100 41800 53100 10 line
gsave
false true false false 161.777776 [(1) ] 0 42000 53150 144.444443 text
grestore
42100 52700 41800 52700 10 line
gsave
false true false false 161.777776 [(2) ] 0 42000 52750 144.444443 text
grestore
42100 52300 41800 52300 10 line
gsave
false true false false 161.777776 [(3) ] 0 42000 52350 144.444443 text
grestore
41400 52100 41800 52100 10 line
41800 52100 41800 53300 10 line
41800 53300 41400 53300 10 line
41400 53300 41400 52100 10 line
41800 52100 41400 52100 10 line
41800 52900 41400 52900 10 line
41800 52500 41400 52500 10 line
grestore
gsave
false true false false 202.222224 [(JP2) ] 0 41700 53400 180.555557 text
grestore
gsave
51700 52200 51600 52000 10 line
51600 52000 51500 52200 10 line
51500 52200 51400 52000 10 line
51400 52000 51300 52200 10 line
51700 52200 51800 52000 10 line
51800 52000 51850 52100 10 line
52000 52100 51850 52100 10 line
51100 52100 51252 52100 10 line
51301 52200 51250 52100 10 line
grestore
gsave
false false false false 202.222224 [(0) ] 0 51600 52200 180.555557 text
grestore
52600 52100 52000 52100 10 line
51100 52100 51000 52100 10 line
51000 52100 51000 52800 10 line
45800 52800 45800 52700 10 line
45800 52700 42100 52700 10 line
gsave
44450 52200 44600 52200 10 line
44200 52200 44301 52252 10 line
44201 52199 44302 52147 10 line
44200 52100 44000 52200 10 line
44000 52200 44200 52300 10 line
44200 52300 44000 52400 10 line
44000 52400 44200 52500 10 line
44200 52100 44000 52000 10 line
44000 52000 44100 51950 10 line
44100 51800 44100 51950 10 line
44100 52700 44100 52548 10 line
44200 52499 44100 52550 10 line
44200 52200 44450 52200 10 line
newpath
44100 52700
25
0 360 arc
fill
newpath
44100 52700
25
0 360 arc
fill
grestore
gsave
false false false false 202.222224 [(R15) ] 0 44300 51900 180.555557 text
grestore
46200 52800 46200 52500 10 line
44600 52500 46200 52500 10 line
45400 50300 45400 52800 10 line
44100 51800 45400 51800 10 line
42500 50400 42500 50300 10 line
45200 50100 50100 50100 10 line
43700 40400 43700 39200 10 line
39700 39200 43700 39200 10 line
39700 39200 39700 53900 10 line
39700 53900 52600 53900 10 line
52600 53900 52600 52500 10 line
42100 53100 42200 53100 10 line
42200 53100 42200 53900 10 line
42100 52300 42900 52300 10 line
42900 51600 42900 53700 10 line
42100 48000 42100 50400 10 line
42100 49800 45800 49800 10 line
45800 49800 45800 51600 10 line
45800 51600 42900 51600 10 line
52600 51700 52200 51700 10 line
52200 51700 52200 53700 10 line
42900 53700 60100 53700 10 line
53000 45600 53000 41400 10 line
48900 41400 43900 41400 10 line
50000 39200 50000 41200 10 line
44200 41200 50000 41200 10 line
44200 41200 44200 44400 10 line
44200 44400 45500 44400 10 line
46200 40600 42900 40600 10 line
42900 40600 42900 41000 10 line
50400 39200 50400 41000 10 line
50400 41000 44400 41000 10 line
44400 41000 44400 44200 10 line
44400 44200 45500 44200 10 line
43700 45400 43700 40800 10 line
45800 39200 45800 40800 10 line
45800 40800 43700 40800 10 line
48200 42700 48200 40800 10 line
48200 40800 50800 40800 10 line
50800 40800 50800 39200 10 line
51200 39200 51200 40600 10 line
51200 40600 48000 40600 10 line
48000 42700 48000 40600 10 line
51300 44000 51600 44000 10 line
51600 44000 51600 39200 10 line
51300 44200 52000 44200 10 line
52000 44200 52000 39200 10 line
49600 42700 49600 41600 10 line
49600 41600 52400 41600 10 line
52400 41600 52400 39200 10 line
49000 42700 49000 41800 10 line
49000 41800 52800 41800 10 line
52800 41800 52800 39200 10 line
52400 39900 45000 39900 10 line
45000 39900 45000 39200 10 line
52800 39700 45400 39700 10 line
45400 39700 45400 39200 10 line
gsave
false false false false 202.222224 [(RA0) ] 90 50000 38100 180.555557 text
grestore
gsave
false false false false 202.222224 [(RA1) ] 90 50400 38100 180.555557 text
grestore
gsave
false false false false 202.222224 [(RC2) ] 90 50800 38100 180.555557 text
grestore
gsave
false false false false 202.222224 [(RC1) ] 90 51200 38100 180.555557 text
grestore
gsave
false false false false 202.222224 [(RB2) ] 90 51600 38100 180.555557 text
grestore
gsave
false false false false 202.222224 [(RB3) ] 90 52000 38100 180.555557 text
grestore
gsave
false false false false 202.222224 [(RD11) ] 90 52400 38000 180.555557 text
grestore
gsave
false false false false 202.222224 [(RC3) ] 90 52900 38100 180.555557 text
grestore
gsave
false false false false 202.222224 [(RD11) ] 90 45000 38000 180.555557 text
grestore
gsave
false false false false 202.222224 [(RC3) ] 90 45500 38100 180.555557 text
grestore
gsave
false false false false 202.222224 [(5V) ] 0 41100 53100 180.555557 text
grestore
gsave
false false false false 202.222224 [(3V3) ] 0 41000 52200 180.555557 text
grestore
gsave
false false false false 202.222224 [(5V) ] 0 53400 52500 180.555557 text
grestore
gsave
false false false false 202.222224 [(3V3) ] 0 53300 51600 180.555557 text
grestore
gsave
false false false false 202.222224 [(Contrast) ] 0 43300 52100 180.555557 text
grestore
gsave
false false false false 202.222224 [( LCD) (Supply) ] 0 40700 52600 180.555557 text
grestore
gsave
false false false false 202.222224 [(  LCD) (Backlight) ] 0 53400 52000 180.555557 text
grestore
44600 52500 44600 52200 10 line
gsave
false false false false 202.222224 [(RD14) ] 90 45000 51100 180.555557 text
grestore
gsave
false false false false 202.222224 [(RD15) ] 90 44500 51100 180.555557 text
grestore
gsave
44500 53200 44400 53000 10 line
44400 53000 44300 53200 10 line
44300 53200 44200 53000 10 line
44200 53000 44100 53200 10 line
44500 53200 44600 53000 10 line
44600 53000 44650 53100 10 line
44800 53100 44650 53100 10 line
43900 53100 44052 53100 10 line
44101 53200 44050 53100 10 line
grestore
gsave
false false false false 202.222224 [(R3) ] 0 44100 53300 180.555557 text
grestore
47000 52800 47000 52300 10 line
44800 52300 47000 52300 10 line
44800 52300 44800 53100 10 line
43900 53100 43900 52700 10 line
50100 50200 50100 50100 10 line
42500 50300 48700 50300 10 line
45500 44000 45200 44000 10 line
45200 44000 45200 50100 10 line
47000 42700 42500 42700 10 line
42500 42700 42500 49900 10 line
50500 50200 50500 49900 10 line
50500 49900 42500 49900 10 line
gsave
40800 45500 40600 45500 10 line
gsave
false true false false 161.777776 [(MCLR) ] 0 40445 45495 144.444443 text
grestore
40550 45500 50 0 360 10 darc
40800 45100 40600 45100 10 line
gsave
false true false false 161.777776 [(Vdd) ] 0 40445 45095 144.444443 text
grestore
40550 45100 50 0 360 10 darc
40800 44700 40600 44700 10 line
gsave
false true false false 161.777776 [(Vss) ] 0 40445 44695 144.444443 text
grestore
40550 44700 50 0 360 10 darc
40800 44300 40600 44300 10 line
gsave
false true false false 161.777776 [(PGD) ] 0 40445 44295 144.444443 text
grestore
40550 44300 50 0 360 10 darc
40800 43900 40600 43900 10 line
gsave
false true false false 161.777776 [(PGC) ] 0 40445 43895 144.444443 text
grestore
40550 43900 50 0 360 10 darc
40800 43500 40600 43500 10 line
40550 43500 50 0 360 10 darc
40000 43100 40500 43100 10 line
40500 43100 40500 45900 10 line
40500 45900 40000 45900 10 line
40000 45900 40000 43100 10 line
newpath
40800 45500
25
0 360 arc
fill
60 60 40770 43470 fbox
grestore
gsave
false false false false 202.222224 [(P1) ] 0 40100 46000 180.555557 text
grestore
49500 48700 49500 50100 10 line
43100 50200 50000 50200 10 line
40800 43900 43100 43900 10 line
43100 43900 43100 50200 10 line
51500 47000 51500 50000 10 line
51500 50000 42700 50000 10 line
40800 44300 42700 44300 10 line
42700 44300 42700 50000 10 line
51300 47000 51500 47000 10 line
50900 50200 50900 48800 10 line
50900 48800 47800 48800 10 line
47800 48500 47800 48800 10 line
48400 48500 48400 48900 10 line
48600 48500 48600 48900 10 line
51300 50200 51300 48700 10 line
48000 48700 51300 48700 10 line
48000 48500 48000 48700 10 line
51700 50200 51700 48600 10 line
48200 48600 51700 48600 10 line
48200 48500 48200 48600 10 line
52100 50200 52100 48900 10 line
48800 48900 52100 48900 10 line
48800 48500 48800 48900 10 line
52500 50200 52500 49000 10 line
49200 49000 52500 49000 10 line
49200 48500 49200 49000 10 line
52900 50200 52900 49100 10 line
49400 49100 52900 49100 10 line
49400 48500 49400 49100 10 line
gsave
false false false false 202.222224 [(RA2) ] 90 50100 50900 180.555557 text
grestore
gsave
false false false false 202.222224 [(RA3) ] 90 50500 50900 180.555557 text
grestore
gsave
false false false false 202.222224 [(RD0) ] 90 50900 50900 180.555557 text
grestore
gsave
false false false false 202.222224 [(RD1) ] 90 51300 50900 180.555557 text
grestore
gsave
false false false false 202.222224 [(RD2) ] 90 51700 50900 180.555557 text
grestore
gsave
false false false false 202.222224 [(RD3) ] 90 52100 50900 180.555557 text
grestore
gsave
false false false false 202.222224 [(RC11) ] 90 52500 50900 180.555557 text
grestore
gsave
false false false false 202.222224 [(RC10) ] 90 52900 50900 180.555557 text
grestore
48700 50300 48700 49800 10 line
gsave
41000 46300 41150 46300 10 line
gsave
false false false false 161.777776 [(1) ] 0 41050 46350 144.444443 text
grestore
41850 46300 42000 46300 10 line
gsave
false false false false 161.777776 [(2) ] 0 41900 46350 144.444443 text
grestore
41150 46300 41325 46300 10 line
41850 46300 41675 46300 10 line
41300 46385 41700 46385 10 line
41339 46300 14 0 360 10 darc
41662 46300 14 0 360 10 darc
41470 46555 41520 46555 10 line
41470 46505 41520 46505 10 line
41470 46505 41495 46455 10 line
41520 46505 41495 46455 10 line
41495 46505 41495 46555 10 line
41495 46455 41495 46386 10 line
grestore
gsave
false false false false 202.222224 [(S1) ] 0 41400 46600 180.555557 text
grestore
gsave
61300 46900 61450 46900 10 line
gsave
false false false false 161.777776 [(1) ] 0 61350 46950 144.444443 text
grestore
62150 46900 62300 46900 10 line
gsave
false false false false 161.777776 [(2) ] 0 62200 46950 144.444443 text
grestore
61450 46900 61625 46900 10 line
62150 46900 61975 46900 10 line
61600 46985 62000 46985 10 line
61639 46900 14 0 360 10 darc
61962 46900 14 0 360 10 darc
61770 47155 61820 47155 10 line
61770 47105 61820 47105 10 line
61770 47105 61795 47055 10 line
61820 47105 61795 47055 10 line
61795 47105 61795 47155 10 line
61795 47055 61795 46986 10 line
newpath
61300 46900
25
0 360 arc
fill
grestore
gsave
false false false false 202.222224 [(S1) ] 0 61700 47200 180.555557 text
grestore
gsave
59500 45900 59650 45900 10 line
gsave
false false false false 161.777776 [(1) ] 0 59550 45950 144.444443 text
grestore
60350 45900 60500 45900 10 line
gsave
false false false false 161.777776 [(2) ] 0 60400 45950 144.444443 text
grestore
59650 45900 59825 45900 10 line
60350 45900 60175 45900 10 line
59800 45985 60200 45985 10 line
59839 45900 14 0 360 10 darc
60162 45900 14 0 360 10 darc
59970 46155 60020 46155 10 line
59970 46105 60020 46105 10 line
59970 46105 59995 46055 10 line
60020 46105 59995 46055 10 line
59995 46105 59995 46155 10 line
59995 46055 59995 45986 10 line
newpath
59500 45900
25
0 360 arc
fill
grestore
gsave
false false false false 202.222224 [(S2) ] 0 59900 46200 180.555557 text
grestore
gsave
62600 45900 62750 45900 10 line
gsave
false false false false 161.777776 [(1) ] 0 62650 45950 144.444443 text
grestore
63450 45900 63600 45900 10 line
gsave
false false false false 161.777776 [(2) ] 0 63500 45950 144.444443 text
grestore
62750 45900 62925 45900 10 line
63450 45900 63275 45900 10 line
62900 45985 63300 45985 10 line
62939 45900 14 0 360 10 darc
63262 45900 14 0 360 10 darc
63070 46155 63120 46155 10 line
63070 46105 63120 46105 10 line
63070 46105 63095 46055 10 line
63120 46105 63095 46055 10 line
63095 46105 63095 46155 10 line
63095 46055 63095 45986 10 line
newpath
62600 45900
25
0 360 arc
fill
grestore
gsave
false false false false 202.222224 [(S3) ] 0 63000 46200 180.555557 text
grestore
gsave
61400 45000 61550 45000 10 line
gsave
false false false false 161.777776 [(1) ] 0 61450 45050 144.444443 text
grestore
62250 45000 62400 45000 10 line
gsave
false false false false 161.777776 [(2) ] 0 62300 45050 144.444443 text
grestore
61550 45000 61725 45000 10 line
62250 45000 62075 45000 10 line
61700 45085 62100 45085 10 line
61739 45000 14 0 360 10 darc
62062 45000 14 0 360 10 darc
61870 45255 61920 45255 10 line
61870 45205 61920 45205 10 line
61870 45205 61895 45155 10 line
61920 45205 61895 45155 10 line
61895 45205 61895 45255 10 line
61895 45155 61895 45086 10 line
grestore
gsave
false false false false 202.222224 [(S4) ] 0 61800 45300 180.555557 text
grestore
42100 46300 42000 46300 10 line
40800 46300 41000 46300 10 line
gsave
false false false false 202.222224 [(RD5) ] 90 54400 50900 180.555557 text
grestore
gsave
false false false false 202.222224 [(RD6) ] 90 54800 50900 180.555557 text
grestore
gsave
false false false false 202.222224 [(RD7) ] 90 55200 50900 180.555557 text
grestore
gsave
false false false false 202.222224 [(RD8) ] 90 55600 50900 180.555557 text
grestore
gsave
false false false false 202.222224 [(RD9) ] 90 56000 50900 180.555557 text
grestore
gsave
false false false false 202.222224 [(RC9) ] 90 56400 50900 180.555557 text
grestore
gsave
false false false false 202.222224 [(RC8) ] 90 56800 50900 180.555557 text
grestore
gsave
false false false false 202.222224 [(RD10) ] 90 57200 50900 180.555557 text
grestore
49800 42700 49800 41900 10 line
49800 41900 56800 41900 10 line
56800 41900 56800 50200 10 line
56400 50200 56400 44600 10 line
56400 44600 51300 44600 10 line
51300 44800 56000 44800 10 line
56000 44800 56000 50200 10 line
51300 45000 55600 45000 10 line
55600 45000 55600 50300 10 line
51300 45200 55200 45200 10 line
55200 45200 55200 50200 10 line
51300 45800 54800 45800 10 line
54800 45800 54800 50200 10 line
51300 46000 54400 46000 10 line
54400 46000 54400 50200 10 line
51300 46200 54000 46200 10 line
54000 46200 54000 50200 10 line
gsave
58100 52400 58300 52300 10 line
58300 52300 58100 52200 10 line
58100 52200 58300 52100 10 line
58300 52100 58100 52000 10 line
58100 52400 58300 52500 10 line
58300 52500 58200 52550 10 line
58200 52700 58200 52550 10 line
58200 51800 58200 51952 10 line
58100 52001 58200 51950 10 line
newpath
58200 52700
25
0 360 arc
fill
newpath
58200 52700
25
0 360 arc
fill
grestore
gsave
false true false true 202.222224 [(R5) ] 0 58100 52500 180.555557 text
grestore
gsave
57600 52400 57800 52300 10 line
57800 52300 57600 52200 10 line
57600 52200 57800 52100 10 line
57800 52100 57600 52000 10 line
57600 52400 57800 52500 10 line
57800 52500 57700 52550 10 line
57700 52700 57700 52550 10 line
57700 51800 57700 51952 10 line
57600 52001 57700 51950 10 line
newpath
57700 52700
25
0 360 arc
fill
newpath
57700 52700
25
0 360 arc
fill
grestore
gsave
false true false true 202.222224 [(R6) ] 0 57600 52500 180.555557 text
grestore
gsave
58600 52400 58800 52300 10 line
58800 52300 58600 52200 10 line
58600 52200 58800 52100 10 line
58800 52100 58600 52000 10 line
58600 52400 58800 52500 10 line
58800 52500 58700 52550 10 line
58700 52700 58700 52550 10 line
58700 51800 58700 51952 10 line
58600 52001 58700 51950 10 line
newpath
58700 52700
25
0 360 arc
fill
newpath
58700 52700
25
0 360 arc
fill
grestore
gsave
false true false true 202.222224 [(R4) ] 0 58600 52500 180.555557 text
grestore
54300 52700 64500 52700 10 line
54300 51400 54300 53100 10 line
54300 53100 52000 53100 10 line
52000 53100 52000 52600 10 line
52000 52600 51400 52600 10 line
51400 52600 51400 52800 10 line
54300 51400 53400 51400 10 line
53400 51400 53400 49800 10 line
58700 50900 58700 44400 10 line
58700 44400 51300 44400 10 line
58200 50900 58200 46600 10 line
58200 46600 51300 46600 10 line
50000 42700 50000 42000 10 line
50000 42000 57700 42000 10 line
57700 42000 57700 50900 10 line
gsave
61500 49100 61700 49000 10 line
61700 49000 61500 48900 10 line
61500 48900 61700 48800 10 line
61700 48800 61500 48700 10 line
61500 49100 61700 49200 10 line
61700 49200 61600 49250 10 line
61600 49400 61600 49250 10 line
61600 48500 61600 48652 10 line
61500 48701 61600 48650 10 line
grestore
gsave
false true false true 202.222224 [(R7) ] 0 61500 49200 180.555557 text
grestore
gsave
60000 49100 60200 49000 10 line
60200 49000 60000 48900 10 line
60000 48900 60200 48800 10 line
60200 48800 60000 48700 10 line
60000 49100 60200 49200 10 line
60200 49200 60100 49250 10 line
60100 49400 60100 49250 10 line
60100 48500 60100 48652 10 line
60000 48701 60100 48650 10 line
newpath
60100 49400
25
0 360 arc
fill
grestore
gsave
false true false true 202.222224 [(R8) ] 0 60000 49200 180.555557 text
grestore
gsave
60500 49100 60700 49000 10 line
60700 49000 60500 48900 10 line
60500 48900 60700 48800 10 line
60700 48800 60500 48700 10 line
60500 49100 60700 49200 10 line
60700 49200 60600 49250 10 line
60600 49400 60600 49250 10 line
60600 48500 60600 48652 10 line
60500 48701 60600 48650 10 line
newpath
60600 49400
25
0 360 arc
fill
newpath
60600 49400
25
0 360 arc
fill
grestore
gsave
false true false true 202.222224 [(R10) ] 0 60500 49200 180.555557 text
grestore
gsave
61000 49100 61200 49000 10 line
61200 49000 61000 48900 10 line
61000 48900 61200 48800 10 line
61200 48800 61000 48700 10 line
61000 49100 61200 49200 10 line
61200 49200 61100 49250 10 line
61100 49400 61100 49250 10 line
61100 48500 61100 48652 10 line
61000 48701 61100 48650 10 line
newpath
61100 49400
25
0 360 arc
fill
newpath
61100 49400
25
0 360 arc
fill
grestore
gsave
false true false true 202.222224 [(R9) ] 0 61000 49200 180.555557 text
grestore
gsave
63000 43400 63200 43300 10 line
63200 43300 63000 43200 10 line
63000 43200 63200 43100 10 line
63200 43100 63000 43000 10 line
63000 43400 63200 43500 10 line
63200 43500 63100 43550 10 line
63100 43700 63100 43550 10 line
63100 42800 63100 42952 10 line
63000 43001 63100 42950 10 line
newpath
63100 42800
25
0 360 arc
fill
newpath
63100 42800
25
0 360 arc
fill
grestore
gsave
false true false true 202.222224 [(R11) ] 0 63000 43500 180.555557 text
grestore
gsave
61500 43400 61700 43300 10 line
61700 43300 61500 43200 10 line
61500 43200 61700 43100 10 line
61700 43100 61500 43000 10 line
61500 43400 61700 43500 10 line
61700 43500 61600 43550 10 line
61600 43700 61600 43550 10 line
61600 42800 61600 42952 10 line
61500 43001 61600 42950 10 line
grestore
gsave
false true false true 202.222224 [(R12) ] 0 61500 43500 180.555557 text
grestore
gsave
62000 43400 62200 43300 10 line
62200 43300 62000 43200 10 line
62000 43200 62200 43100 10 line
62200 43100 62000 43000 10 line
62000 43400 62200 43500 10 line
62200 43500 62100 43550 10 line
62100 43700 62100 43550 10 line
62100 42800 62100 42952 10 line
62000 43001 62100 42950 10 line
newpath
62100 42800
25
0 360 arc
fill
newpath
62100 42800
25
0 360 arc
fill
grestore
gsave
false true false true 202.222224 [(R14) ] 0 62000 43500 180.555557 text
grestore
gsave
62500 43400 62700 43300 10 line
62700 43300 62500 43200 10 line
62500 43200 62700 43100 10 line
62700 43100 62500 43000 10 line
62500 43400 62700 43500 10 line
62700 43500 62600 43550 10 line
62600 43700 62600 43550 10 line
62600 42800 62600 42952 10 line
62500 43001 62600 42950 10 line
newpath
62600 42800
25
0 360 arc
fill
newpath
62600 42800
25
0 360 arc
fill
grestore
gsave
false true false true 202.222224 [(R13) ] 0 62500 43500 180.555557 text
grestore
62300 46900 64300 46900 10 line
64300 43700 64300 46900 10 line
64300 43700 63100 43700 10 line
63600 45900 64000 45900 10 line
64000 44100 64000 45900 10 line
62600 43700 62600 44100 10 line
62600 44100 64000 44100 10 line
62400 45000 62400 44400 10 line
62400 44400 62100 44400 10 line
62100 44400 62100 43700 10 line
61600 43700 61600 44300 10 line
60500 44300 61600 44300 10 line
60500 44300 60500 45900 10 line
61300 46900 61300 47800 10 line
61300 47800 61600 47800 10 line
61600 47800 61600 48500 10 line
62600 45900 61100 45900 10 line
61100 45900 61100 48500 10 line
57300 45000 61400 45000 10 line
60800 45000 60800 47800 10 line
60600 48500 60600 47800 10 line
60600 47800 60800 47800 10 line
59500 45900 59500 47800 10 line
59500 47800 60100 47800 10 line
60100 47800 60100 48500 10 line
60100 53700 60100 49400 10 line
60100 49400 61600 49400 10 line
64500 42800 64500 52700 10 line
64500 42800 61600 42800 10 line
52800 46900 61300 46900 10 line
52800 46900 52800 46400 10 line
51300 46400 52800 46400 10 line
59500 45900 57500 45900 10 line
57500 45900 57500 49700 10 line
49600 48500 49600 49700 10 line
49600 49700 57500 49700 10 line
62600 45900 62600 45500 10 line
62600 45500 57100 45500 10 line
57100 45500 57100 49400 10 line
49800 48500 49800 49400 10 line
49800 49400 57100 49400 10 line
47200 42700 47200 40200 10 line
47200 40200 57300 40200 10 line
57300 40200 57300 45000 10 line
47600 42700 47600 41400 10 line
41900 42300 52100 42300 10 line
47400 42700 47400 42300 10 line
52100 45600 52100 42300 10 line
50000 48500 50000 50200 10 line
42100 48000 42300 48000 10 line
42300 48000 42300 45100 10 line
42300 45100 41900 45100 10 line
42100 49100 48100 49100 10 line
48400 48900 48100 48900 10 line
48100 48900 48100 49100 10 line
gsave
41200 48000 41400 48000 10 line
42100 48000 41900 48000 10 line
41600 48200 41600 47800 10 line
41700 48200 41700 47800 10 line
41900 48000 41700 48000 10 line
41600 48000 41400 48000 10 line
newpath
42100 48000
25
0 360 arc
fill
grestore
gsave
false false false false 202.222224 [(C5) ] 0 41400 48300 180.555557 text
grestore
gsave
53500 40900 53700 40900 10 line
54400 40900 54200 40900 10 line
53900 41100 53900 40700 10 line
54000 41100 54000 40700 10 line
54200 40900 54000 40900 10 line
53900 40900 53700 40900 10 line
grestore
gsave
false false false false 202.222224 [(C7) ] 0 53700 41200 180.555557 text
grestore
gsave
58100 41800 58300 41800 10 line
59000 41800 58800 41800 10 line
58500 42000 58500 41600 10 line
58600 42000 58600 41600 10 line
58800 41800 58600 41800 10 line
58500 41800 58300 41800 10 line
newpath
59000 41800
25
0 360 arc
fill
newpath
59000 41800
25
0 360 arc
fill
grestore
gsave
false false false false 202.222224 [(C6) ] 0 58300 42100 180.555557 text
grestore
gsave
53800 43500 54000 43500 10 line
54700 43500 54500 43500 10 line
54200 43700 54200 43300 10 line
54300 43700 54300 43300 10 line
54500 43500 54300 43500 10 line
54200 43500 54000 43500 10 line
newpath
53800 43500
25
0 360 arc
fill
grestore
gsave
false false false false 202.222224 [(C10) ] 0 54000 43800 180.555557 text
grestore
gsave
53800 42800 54000 42800 10 line
54700 42800 54500 42800 10 line
54200 43000 54200 42600 10 line
54300 43000 54300 42600 10 line
54500 42800 54300 42800 10 line
54200 42800 54000 42800 10 line
newpath
53800 42800
25
0 360 arc
fill
newpath
54700 42800
25
0 360 arc
fill
newpath
54700 42800
25
0 360 arc
fill
grestore
gsave
false false false false 202.222224 [(C11) ] 0 54000 43100 180.555557 text
grestore
gsave
53800 42800 53800 43000 10 line
53800 43300 53800 43500 10 line
53700 43050 53900 43050 10 line
53900 43050 53900 43250 10 line
53900 43250 53700 43250 10 line
53700 43250 53700 43050 10 line
53660 43000 53940 43000 10 line
53660 43300 53940 43300 10 line
newpath
53800 42800
25
0 360 arc
fill
newpath
53800 43500
25
0 360 arc
fill
grestore
gsave
false true false true 202.222224 [(X1) ] 0 53500 43100 180.555557 text
grestore
gsave
41000 41500 40800 41500 10 line
40100 41500 40300 41500 10 line
40600 41600 40500 41500 10 line
40500 41500 40600 41400 10 line
40600 41600 40600 41400 10 line
40500 41600 40500 41400 10 line
40500 41500 40300 41500 10 line
40600 41500 40800 41500 10 line
40570 41640 40470 41740 10 line
40470 41740 40520 41710 10 line
40470 41740 40500 41690 10 line
40500 41640 40400 41740 10 line
40400 41740 40450 41710 10 line
40400 41740 40430 41690 10 line
newpath
40100 41500
25
0 360 arc
fill
newpath
40100 41500
25
0 360 arc
fill
grestore
gsave
false true false false 202.222224 [(D4) ] 0 40400 41600 180.555557 text
grestore
53800 43500 51300 43500 10 line
51300 43500 51300 42600 10 line
51300 42600 49400 42600 10 line
49400 42600 49400 42700 10 line
53800 42800 52600 42800 10 line
52600 42800 52600 42100 10 line
52600 42100 49200 42100 10 line
49200 42100 49200 42700 10 line
54700 43500 54700 41400 10 line
42100 47100 41200 47100 10 line
41200 47100 41200 48000 10 line
58000 40400 58000 43600 10 line
58000 43600 59000 43600 10 line
54400 40900 54400 40400 10 line
53000 41400 53000 40900 10 line
53000 40900 53500 40900 10 line
gsave
60400 39100 60400 38500 10 line
56900 38500 64500 38500 10 line
64500 38500 64500 39900 10 line
64500 39900 56900 39900 10 line
56900 39900 56900 38500 10 line
56900 39100 64500 39100 10 line
gsave
false false false false 161.777776 [(FILE:) ] 0 57000 39200 144.444443 text
grestore
gsave
false false false false 161.777776 [(REVISION:) ] 0 60500 38900 144.444443 text
grestore
gsave
false false false false 161.777776 [(DRAWN BY: ) ] 0 60500 38600 144.444443 text
grestore
gsave
false false false false 161.777776 [(PAGE) ] 0 57000 38600 144.444443 text
grestore
gsave
false false false false 161.777776 [(OF) ] 0 58700 38600 144.444443 text
grestore
gsave
false false false false 161.777776 [(TITLE) ] 0 57000 39600 144.444443 text
grestore
gsave
false false false false 161.777776 [(DATE) ] 0 57000 38900 144.444443 text
grestore
grestore
gsave
false false false false 202.222224 [(2019-02-27) ] 0 57500 38900 180.555557 text
grestore
gsave
false false false false 202.222224 [(3.0) ] 0 61400 38900 180.555557 text
grestore
gsave
false false false false 202.222224 [(WB8RCR) ] 0 62900 38600 180.555557 text
grestore
gsave
false false false false 202.222224 [(3490452146a5a9054acbac2f0a1da44c80561755) ] 0 57700 39200 180.555557 text
grestore
gsave
true false true false 283.111104 [(dsPIC-EL-CH) ] 0 60700 39600 252.777771 text
grestore
59300 41000 58000 41000 10 line
58100 41800 58000 41800 10 line
gsave
false false false false 202.222224 [(1) ] 0 57900 38600 180.555557 text
grestore
gsave
false false false false 202.222224 [(1) ] 0 59500 38600 180.555557 text
grestore
gsave
false false false false 161.777776 [(R1 51K) (R2 10K2) (R3 5K1) (R4,R5,R6 1K5) (R7,R8,R9,R10 5K1) (R11,R12,R13,R14 510) (R15 10K) (C1,C2,C3,C4 0.01) (C5,C6,C7 0.1) (C8 22) (C9 10) (C10,C11 22p) () ] 0 60700 50100 144.444443 text
grestore
gsave
false false false false 161.777776 [(Note that resistor values) (are grossly non-critical) ] 0 62500 51900 144.444443 text
grestore
gsave
false false false false 202.222224 [(XH) ] 0 60100 40700 180.555557 text
grestore
gsave
false false false false 202.222224 [(micro) (USB) ] 0 60200 42500 180.555557 text
grestore
gsave
false false false false 202.222224 [(red) ] 90 57600 51000 180.555557 text
grestore
gsave
false false false false 202.222224 [(yellow) ] 90 58100 50800 180.555557 text
grestore
gsave
false false false false 202.222224 [(green) ] 90 58600 50800 180.555557 text
grestore
gsave
false false false false 202.222224 [(white) ] 0 40200 41200 180.555557 text
grestore
gsave
false false false false 202.222224 [(Reset) ] 0 41200 46100 180.555557 text
grestore
gsave
false false false false 202.222224 [(Up) ] 0 61700 46700 180.555557 text
grestore
gsave
false false false false 202.222224 [(Left) ] 0 59800 45700 180.555557 text
grestore
gsave
false false false false 202.222224 [(Right) ] 0 62900 45700 180.555557 text
grestore
gsave
false false false false 202.222224 [(Down) ] 0 61600 44800 180.555557 text
grestore
gsave
false false false false 202.222224 [(PICkit) ] 90 39900 44300 180.555557 text
grestore
newpath
48400 48900
25
0 360 arc
fill
newpath
48600 41400
25
0 360 arc
fill
newpath
48600 41400
25
0 360 arc
fill
newpath
48600 42300
25
0 360 arc
fill
newpath
48600 42300
25
0 360 arc
fill
newpath
52100 45600
25
0 360 arc
fill
newpath
53000 45600
25
0 360 arc
fill
newpath
53000 45600
25
0 360 arc
fill
newpath
43900 45400
25
0 360 arc
fill
60 60 45470 44770 fbox
60 60 45470 44570 fbox
60 60 47770 42670 fbox
60 60 48370 42670 fbox
60 60 51270 46770 fbox
60 60 48970 48470 fbox
newpath
42800 40400
25
0 360 arc
fill
newpath
41000 40400
25
0 360 arc
fill
newpath
41000 39500
25
0 360 arc
fill
newpath
41000 39500
25
0 360 arc
fill
newpath
42800 40400
25
0 360 arc
fill
newpath
42800 39500
25
0 360 arc
fill
newpath
42800 39500
25
0 360 arc
fill
newpath
41900 41500
25
0 360 arc
fill
newpath
41900 41500
25
0 360 arc
fill
newpath
41000 40400
25
0 360 arc
fill
newpath
41900 41000
25
0 360 arc
fill
newpath
41900 41500
25
0 360 arc
fill
newpath
41900 41000
25
0 360 arc
fill
newpath
41900 45100
25
0 360 arc
fill
newpath
41900 42300
25
0 360 arc
fill
newpath
41900 45100
25
0 360 arc
fill
newpath
41900 41000
25
0 360 arc
fill
newpath
40100 41500
25
0 360 arc
fill
newpath
41000 39500
25
0 360 arc
fill
newpath
42800 39500
25
0 360 arc
fill
newpath
42000 39500
25
0 360 arc
fill
newpath
42000 39500
25
0 360 arc
fill
newpath
42000 39500
25
0 360 arc
fill
newpath
41000 40400
25
0 360 arc
fill
newpath
46600 40400
25
0 360 arc
fill
newpath
46600 40400
25
0 360 arc
fill
newpath
42800 40400
25
0 360 arc
fill
newpath
46600 40400
25
0 360 arc
fill
newpath
43700 40400
25
0 360 arc
fill
newpath
54400 40400
25
0 360 arc
fill
newpath
47000 39200
25
0 360 arc
fill
newpath
47000 39200
25
0 360 arc
fill
newpath
41300 44700
25
0 360 arc
fill
newpath
41300 44700
25
0 360 arc
fill
newpath
41300 44700
25
0 360 arc
fill
newpath
41900 45100
25
0 360 arc
fill
newpath
41900 45100
25
0 360 arc
fill
newpath
43900 45100
25
0 360 arc
fill
newpath
43900 45100
25
0 360 arc
fill
newpath
43900 45400
25
0 360 arc
fill
newpath
43900 45100
25
0 360 arc
fill
newpath
40800 45800
25
0 360 arc
fill
newpath
40800 45800
25
0 360 arc
fill
newpath
40800 45500
25
0 360 arc
fill
newpath
40800 45800
25
0 360 arc
fill
newpath
40800 45500
25
0 360 arc
fill
newpath
42100 45400
25
0 360 arc
fill
newpath
42100 46300
25
0 360 arc
fill
newpath
42100 45400
25
0 360 arc
fill
newpath
43900 45400
25
0 360 arc
fill
newpath
42100 45400
25
0 360 arc
fill
newpath
43700 45400
25
0 360 arc
fill
newpath
59500 42200
25
0 360 arc
fill
newpath
59500 42200
25
0 360 arc
fill
60 60 58970 42970 fbox
60 60 58970 43270 fbox
newpath
59000 41400
25
0 360 arc
fill
newpath
59000 42200
25
0 360 arc
fill
newpath
59000 41400
25
0 360 arc
fill
newpath
59000 41800
25
0 360 arc
fill
newpath
59000 42200
25
0 360 arc
fill
newpath
59500 42200
25
0 360 arc
fill
newpath
59000 42200
25
0 360 arc
fill
newpath
47000 39200
25
0 360 arc
fill
60 60 47770 39170 fbox
60 60 47770 52770 fbox
60 60 48170 52770 fbox
60 60 48570 52770 fbox
60 60 48970 52770 fbox
60 60 41270 50370 fbox
60 60 41670 50370 fbox
newpath
48700 49800
25
0 360 arc
fill
newpath
53000 49800
25
0 360 arc
fill
newpath
48700 49800
25
0 360 arc
fill
newpath
48700 49800
25
0 360 arc
fill
newpath
48700 49800
25
0 360 arc
fill
newpath
52100 45600
25
0 360 arc
fill
newpath
53000 45300
25
0 360 arc
fill
newpath
53000 45300
25
0 360 arc
fill
newpath
53000 45300
25
0 360 arc
fill
newpath
53000 49800
25
0 360 arc
fill
newpath
53000 45600
25
0 360 arc
fill
newpath
53000 49800
25
0 360 arc
fill
newpath
53000 45600
25
0 360 arc
fill
newpath
53000 45300
25
0 360 arc
fill
newpath
48600 42300
25
0 360 arc
fill
newpath
48600 42300
25
0 360 arc
fill
newpath
48600 41400
25
0 360 arc
fill
newpath
59000 41400
25
0 360 arc
fill
newpath
48900 41400
25
0 360 arc
fill
newpath
53000 41400
25
0 360 arc
fill
newpath
48900 41400
25
0 360 arc
fill
newpath
48600 41400
25
0 360 arc
fill
newpath
54700 41400
25
0 360 arc
fill
newpath
53000 41400
25
0 360 arc
fill
newpath
48900 41400
25
0 360 arc
fill
newpath
48900 41400
25
0 360 arc
fill
newpath
55600 50200
25
0 360 arc
fill
newpath
55600 50200
25
0 360 arc
fill
newpath
44100 52700
25
0 360 arc
fill
newpath
43900 52700
25
0 360 arc
fill
newpath
44100 52700
25
0 360 arc
fill
newpath
44100 52700
25
0 360 arc
fill
newpath
45400 50300
25
0 360 arc
fill
newpath
45400 51800
25
0 360 arc
fill
newpath
45400 50300
25
0 360 arc
fill
newpath
45400 51800
25
0 360 arc
fill
newpath
45400 51800
25
0 360 arc
fill
newpath
49500 50100
25
0 360 arc
fill
newpath
43700 40400
25
0 360 arc
fill
newpath
43700 40400
25
0 360 arc
fill
newpath
42200 53900
25
0 360 arc
fill
newpath
42200 53900
25
0 360 arc
fill
newpath
42200 53900
25
0 360 arc
fill
newpath
42900 52300
25
0 360 arc
fill
newpath
42900 52300
25
0 360 arc
fill
newpath
42900 52300
25
0 360 arc
fill
newpath
42100 48000
25
0 360 arc
fill
newpath
42100 49800
25
0 360 arc
fill
newpath
42100 49100
25
0 360 arc
fill
newpath
42100 49800
25
0 360 arc
fill
newpath
42100 49800
25
0 360 arc
fill
newpath
52200 53700
25
0 360 arc
fill
newpath
52200 53700
25
0 360 arc
fill
newpath
52200 53700
25
0 360 arc
fill
newpath
53000 45600
25
0 360 arc
fill
newpath
53000 41400
25
0 360 arc
fill
newpath
53000 45300
25
0 360 arc
fill
newpath
53000 45600
25
0 360 arc
fill
newpath
53000 45300
25
0 360 arc
fill
newpath
53000 41400
25
0 360 arc
fill
newpath
48900 41400
25
0 360 arc
fill
newpath
48600 41400
25
0 360 arc
fill
newpath
48900 41400
25
0 360 arc
fill
newpath
48600 41400
25
0 360 arc
fill
newpath
47600 41400
25
0 360 arc
fill
newpath
43700 45400
25
0 360 arc
fill
newpath
43700 45400
25
0 360 arc
fill
newpath
52400 39900
25
0 360 arc
fill
newpath
52800 39700
25
0 360 arc
fill
newpath
52400 39900
25
0 360 arc
fill
newpath
52400 39900
25
0 360 arc
fill
newpath
52800 39700
25
0 360 arc
fill
newpath
52800 39700
25
0 360 arc
fill
newpath
43900 52700
25
0 360 arc
fill
newpath
43900 52700
25
0 360 arc
fill
newpath
45400 50300
25
0 360 arc
fill
newpath
40800 45500
25
0 360 arc
fill
60 60 40770 43470 fbox
newpath
49500 48700
25
0 360 arc
fill
newpath
49500 50100
25
0 360 arc
fill
newpath
49500 50100
25
0 360 arc
fill
newpath
49500 48700
25
0 360 arc
fill
newpath
48400 48900
25
0 360 arc
fill
newpath
49500 48700
25
0 360 arc
fill
newpath
48700 49800
25
0 360 arc
fill
newpath
48700 49800
25
0 360 arc
fill
newpath
61300 46900
25
0 360 arc
fill
newpath
59500 45900
25
0 360 arc
fill
newpath
62600 45900
25
0 360 arc
fill
newpath
42100 46300
25
0 360 arc
fill
newpath
42100 46300
25
0 360 arc
fill
gsave
[ 0.00 -1.00 1.00 0.00 55600 50300 ] concat
newpath
-30 -30 moveto
-30 30 lineto
30 0 lineto
closepath
fill
grestore
newpath
55600 50200
25
0 360 arc
fill
newpath
58200 52700
25
0 360 arc
fill
newpath
58200 52700
25
0 360 arc
fill
newpath
57700 52700
25
0 360 arc
fill
newpath
57700 52700
25
0 360 arc
fill
newpath
58700 52700
25
0 360 arc
fill
newpath
58700 52700
25
0 360 arc
fill
newpath
54300 52700
25
0 360 arc
fill
newpath
58200 52700
25
0 360 arc
fill
newpath
57700 52700
25
0 360 arc
fill
newpath
58700 52700
25
0 360 arc
fill
newpath
54300 52700
25
0 360 arc
fill
newpath
54300 52700
25
0 360 arc
fill
newpath
60100 49400
25
0 360 arc
fill
newpath
60600 49400
25
0 360 arc
fill
newpath
60600 49400
25
0 360 arc
fill
newpath
61100 49400
25
0 360 arc
fill
newpath
61100 49400
25
0 360 arc
fill
newpath
63100 42800
25
0 360 arc
fill
newpath
63100 42800
25
0 360 arc
fill
newpath
62100 42800
25
0 360 arc
fill
newpath
62100 42800
25
0 360 arc
fill
newpath
62600 42800
25
0 360 arc
fill
newpath
62600 42800
25
0 360 arc
fill
newpath
61300 46900
25
0 360 arc
fill
newpath
62600 45900
25
0 360 arc
fill
newpath
60800 45000
25
0 360 arc
fill
newpath
60800 45000
25
0 360 arc
fill
newpath
60800 45000
25
0 360 arc
fill
newpath
59500 45900
25
0 360 arc
fill
newpath
60100 49400
25
0 360 arc
fill
newpath
60100 49400
25
0 360 arc
fill
newpath
60600 49400
25
0 360 arc
fill
newpath
61100 49400
25
0 360 arc
fill
newpath
63100 42800
25
0 360 arc
fill
newpath
62100 42800
25
0 360 arc
fill
newpath
62600 42800
25
0 360 arc
fill
newpath
61300 46900
25
0 360 arc
fill
newpath
59500 45900
25
0 360 arc
fill
newpath
62600 45900
25
0 360 arc
fill
newpath
47600 41400
25
0 360 arc
fill
newpath
47600 41400
25
0 360 arc
fill
newpath
41900 42300
25
0 360 arc
fill
newpath
41900 42300
25
0 360 arc
fill
newpath
48600 42300
25
0 360 arc
fill
newpath
48600 42300
25
0 360 arc
fill
newpath
47400 42300
25
0 360 arc
fill
newpath
47400 42300
25
0 360 arc
fill
newpath
47400 42300
25
0 360 arc
fill
newpath
52100 45600
25
0 360 arc
fill
newpath
42100 48000
25
0 360 arc
fill
newpath
41900 45100
25
0 360 arc
fill
newpath
41900 45100
25
0 360 arc
fill
newpath
42100 49100
25
0 360 arc
fill
newpath
42100 49100
25
0 360 arc
fill
newpath
48400 48900
25
0 360 arc
fill
newpath
42100 48000
25
0 360 arc
fill
newpath
59000 41800
25
0 360 arc
fill
newpath
59000 41800
25
0 360 arc
fill
newpath
53800 43500
25
0 360 arc
fill
newpath
53800 42800
25
0 360 arc
fill
newpath
54700 42800
25
0 360 arc
fill
newpath
54700 42800
25
0 360 arc
fill
newpath
53800 42800
25
0 360 arc
fill
newpath
53800 43500
25
0 360 arc
fill
newpath
40100 41500
25
0 360 arc
fill
newpath
40100 41500
25
0 360 arc
fill
newpath
53800 43500
25
0 360 arc
fill
newpath
53800 42800
25
0 360 arc
fill
newpath
54700 41400
25
0 360 arc
fill
newpath
54700 41400
25
0 360 arc
fill
newpath
54700 42800
25
0 360 arc
fill
newpath
58000 41000
25
0 360 arc
fill
newpath
58000 41800
25
0 360 arc
fill
newpath
54400 40400
25
0 360 arc
fill
newpath
54400 40400
25
0 360 arc
fill
newpath
53000 41400
25
0 360 arc
fill
newpath
53000 41400
25
0 360 arc
fill
newpath
58000 41000
25
0 360 arc
fill
newpath
58000 41000
25
0 360 arc
fill
newpath
58000 41800
25
0 360 arc
fill
newpath
58000 41800
25
0 360 arc
fill
showpage
%%End
