v 20130925 2
C 48600 48900 1 90 0 capacitor-1.sym
{
T 47900 49100 5 10 0 0 90 0 1
device=CAPACITOR
T 48400 49700 5 10 1 1 180 0 1
refdes=C2
T 47700 49100 5 10 0 0 90 0 1
symversion=0.1
}
C 48800 41400 1 90 0 capacitor-1.sym
{
T 48100 41600 5 10 0 0 90 0 1
device=CAPACITOR
T 48600 41700 5 10 1 1 180 0 1
refdes=C4
T 47900 41600 5 10 0 0 90 0 1
symversion=0.1
}
C 52100 45400 1 0 0 capacitor-1.sym
{
T 52300 46100 5 10 0 0 0 0 1
device=CAPACITOR
T 52700 45600 5 10 1 1 0 0 1
refdes=C3
T 52300 46300 5 10 0 0 0 0 1
symversion=0.1
}
C 43900 45200 1 0 0 capacitor-1.sym
{
T 44100 45900 5 10 0 0 0 0 1
device=CAPACITOR
T 44000 45400 5 10 1 1 0 0 1
refdes=C1
T 44100 46100 5 10 0 0 0 0 1
symversion=0.1
}
C 41000 45400 1 0 0 resistor-1.sym
{
T 41300 45800 5 10 0 0 0 0 1
device=RESISTOR
T 41000 45300 5 10 1 1 0 0 1
refdes=R1
}
C 45500 42700 1 0 0 dsPIC33CH512MP506.sym
{
T 49595 126995 5 10 0 1 0 0 1
footprint=TQFP64_10
T 47195 45595 5 10 1 1 0 0 1
device=dsPIC33CH512MP506
T 46108 47662 5 10 1 1 0 0 1
refdes=U1
}
C 59300 40600 1 0 0 connector2-2.sym
{
T 60000 41900 5 10 1 1 0 6 1
refdes=J2
T 59600 41850 5 10 0 0 0 0 1
device=CONNECTOR_2
T 59600 42050 5 10 0 0 0 0 1
footprint=SIP2N
}
C 42800 39800 1 0 1 AMS1117.sym
{
T 41200 41100 5 10 0 0 0 6 1
device=AMS1117
T 42200 40700 5 10 1 1 0 0 1
refdes=U2
}
C 40800 40400 1 270 0 capacitor-1.sym
{
T 41500 40200 5 10 0 0 270 0 1
device=CAPACITOR
T 40700 40100 5 10 1 1 0 0 1
refdes=C8
T 41700 40200 5 10 0 0 270 0 1
symversion=0.1
}
C 42600 40400 1 270 0 capacitor-1.sym
{
T 43300 40200 5 10 0 0 270 0 1
device=CAPACITOR
T 43000 40100 5 10 1 1 0 0 1
refdes=C9
T 43500 40200 5 10 0 0 270 0 1
symversion=0.1
}
C 41000 41400 1 0 0 resistor-1.sym
{
T 41300 41800 5 10 0 0 0 0 1
device=RESISTOR
T 41200 41600 5 10 1 1 0 0 1
refdes=R2
}
N 41000 40400 41000 41000 4
N 41900 41000 41900 45500 4
N 41000 41000 42900 41000 4
N 40100 39500 40100 42600 4
N 40100 39500 43500 39500 4
N 42000 39800 42000 39500 4
N 41000 40400 41200 40400 4
N 46600 39200 46600 40400 4
N 42800 40400 58000 40400 4
N 46200 40600 46200 39200 4
N 47400 39200 47000 39200 4
N 47000 39200 47000 40100 4
N 47000 40100 43500 40100 4
N 43500 40100 43500 39500 4
N 40100 42600 41300 42600 4
N 41300 42600 41300 44700 4
N 40800 44700 42100 44700 4
N 40800 45100 41900 45100 4
N 44800 45400 45500 45400 4
N 45500 45200 44600 45200 4
N 44600 45200 44600 45100 4
N 44600 45100 43900 45100 4
N 43900 41400 43900 45400 4
N 45500 45600 44500 45600 4
N 44500 45600 44500 50400 4
N 45500 45800 40800 45800 4
N 40800 45500 40800 46300 4
N 40800 45500 41000 45500 4
N 42100 44700 42100 47100 4
N 42100 45400 43900 45400 4
N 45500 45000 44900 45000 4
N 44900 45000 44900 50400 4
C 59000 42200 1 0 0 USBgeneric.sym
{
T 59000 43800 5 10 0 1 0 0 1
device=USB
T 59600 43900 5 10 1 1 0 0 1
refdes=J1
}
N 59000 41400 59000 42700 4
N 59000 42200 59900 42200 4
C 57800 50900 1 90 0 led-2.sym
{
T 57700 51700 5 10 1 1 180 0 1
refdes=D3
T 57200 51000 5 10 0 0 90 0 1
device=LED
}
C 58300 50900 1 90 0 led-2.sym
{
T 58200 51700 5 10 1 1 180 0 1
refdes=D2
T 57700 51000 5 10 0 0 90 0 1
device=LED
}
C 58800 50900 1 90 0 led-2.sym
{
T 58700 51700 5 10 1 1 180 0 1
refdes=D1
T 58200 51000 5 10 0 0 90 0 1
device=LED
}
C 48200 38500 1 90 0 ArduinoConn1.sym
{
T 44600 38900 5 10 1 1 180 0 1
refdes=J4
T 44550 38100 5 10 0 0 90 0 1
device=CONNECTOR_8
T 44350 38100 5 10 0 0 90 0 1
footprint=SIP8N
}
C 53200 38600 1 90 0 ArduinoConn2.sym
{
T 49600 38900 5 10 1 1 180 0 1
refdes=J5
T 49550 38900 5 10 0 0 90 0 1
device=ArduinoConn2
T 49350 38900 5 10 0 0 90 0 1
footprint=SIP8N
}
C 51800 52800 1 90 0 connector-LCD.sym
{
T 44800 53500 5 10 1 1 180 6 1
refdes=J3
T 44950 53100 5 10 0 0 90 0 1
device=CONNECTOR_16
T 44750 53100 5 10 0 0 90 0 1
footprint=SIP16N
}
C 45300 50400 1 90 0 ArduinoConn4.sym
{
T 40700 51100 5 10 1 1 180 6 1
refdes=J7
T 40850 50700 5 10 0 0 90 0 1
device=CONNECTOR_10
T 40650 50700 5 10 0 0 90 0 1
footprint=SIP10N
}
C 53300 50200 1 90 0 ArduinoConn3.sym
{
T 49500 50900 5 10 1 1 180 6 1
refdes=J6
T 49650 50500 5 10 0 0 90 0 1
device=ArduinoConn3
T 49450 50500 5 10 0 0 90 0 1
footprint=SIP8N
}
N 48700 48900 48600 48900 4
N 48400 49800 53400 49800 4
N 48700 48900 48700 49800 4
N 51300 45600 52100 45600 4
N 51300 45400 52200 45400 4
N 52200 45400 52200 45300 4
N 52200 45300 53000 45300 4
N 53000 45300 53000 49800 4
N 48600 42300 48600 42700 4
N 48600 41400 59300 41400 4
N 48900 41400 48900 42100 4
N 48900 42100 48800 42100 4
N 48800 42700 48800 42100 4
N 44100 50400 44100 46000 4
N 44100 46000 45500 46000 4
N 43700 50400 43700 46200 4
N 43700 46200 45500 46200 4
N 43300 50400 43300 46400 4
N 43300 46400 45500 46400 4
N 42900 50400 42900 46600 4
N 42900 46600 45500 46600 4
C 57200 50200 1 90 0 ArduinoConn5.sym
{
T 53400 50900 5 10 1 1 180 6 1
refdes=J8
T 53550 50500 5 10 0 0 90 0 1
device=ArduinoConn3
T 53350 50500 5 10 0 0 90 0 1
footprint=SIP8N
}
N 45500 46800 45000 46800 4
N 45000 46800 45000 49400 4
N 46100 52100 50600 52100 4
N 50600 52100 50600 52800 4
N 46100 52100 46100 49400 4
N 46100 49400 45000 49400 4
N 50200 52800 50200 51900 4
N 46300 51900 50200 51900 4
N 45100 47000 45100 48900 4
N 45500 47000 45100 47000 4
N 45100 48900 46300 48900 4
N 46300 48900 46300 51900 4
N 47000 48500 47000 51700 4
N 47000 51700 49800 51700 4
N 49800 52800 49800 51700 4
N 49400 52800 49400 51500 4
N 47200 51500 49400 51500 4
N 47200 51500 47200 48500 4
N 47400 48500 47400 52800 4
N 47600 48500 47600 51300 4
N 46600 51300 47600 51300 4
N 46600 51300 46600 52800 4
C 52600 51500 1 0 0 header3-1.sym
{
T 53600 52150 5 10 0 0 0 0 1
device=HEADER3
T 53000 52800 5 10 1 1 0 0 1
refdes=JP1
}
C 42100 52100 1 0 1 header3-1.sym
{
T 41100 52750 5 10 0 0 0 6 1
device=HEADER3
T 41700 53400 5 10 1 1 0 6 1
refdes=JP2
}
C 51100 52000 1 0 0 resistor-1.sym
{
T 51400 52400 5 10 0 0 0 0 1
device=RESISTOR
T 51300 52300 5 10 0 1 0 0 1
refdes=R?
T 51600 52200 5 10 1 1 0 0 1
value=0
}
N 52600 52100 52000 52100 4
N 51100 52100 51000 52100 4
N 51000 52100 51000 52800 4
N 45800 52800 45800 52700 4
N 45800 52700 42100 52700 4
C 44000 52700 1 270 0 resistor-variable-1.sym
{
T 44900 51900 5 10 0 0 270 0 1
device=VARIABLE_RESISTOR
T 44300 51900 5 10 1 1 0 0 1
refdes=R15
}
N 46200 52800 46200 52500 4
N 44600 52500 46200 52500 4
N 45400 50300 45400 52800 4
N 44100 51800 45400 51800 4
N 42500 50400 42500 50300 4
N 45200 50100 50100 50100 4
N 43700 40400 43700 39200 4
N 39700 39200 43700 39200 4
N 39700 39200 39700 53900 4
N 39700 53900 52600 53900 4
N 52600 53900 52600 52500 4
N 42100 53100 42200 53100 4
N 42200 53100 42200 53900 4
N 42100 52300 42900 52300 4
N 42900 51600 42900 53700 4
N 42100 48000 42100 50400 4
N 42100 49800 45800 49800 4
N 45800 49800 45800 51600 4
N 45800 51600 42900 51600 4
N 52600 51700 52200 51700 4
N 52200 51700 52200 53700 4
N 42900 53700 60100 53700 4
N 53000 45600 53000 41400 4
N 48900 41400 43900 41400 4
N 50000 39200 50000 41200 4
N 44200 41200 50000 41200 4
N 44200 41200 44200 44400 4
N 44200 44400 45500 44400 4
N 46200 40600 42900 40600 4
N 42900 40600 42900 41000 4
N 50400 39200 50400 41000 4
N 50400 41000 44400 41000 4
N 44400 41000 44400 44200 4
N 44400 44200 45500 44200 4
N 43700 45400 43700 40800 4
N 45800 39200 45800 40800 4
N 45800 40800 43700 40800 4
N 48200 42700 48200 40800 4
N 48200 40800 50800 40800 4
N 50800 40800 50800 39200 4
N 51200 39200 51200 40600 4
N 51200 40600 48000 40600 4
N 48000 42700 48000 40600 4
N 51300 44000 51600 44000 4
N 51600 44000 51600 39200 4
N 51300 44200 52000 44200 4
N 52000 44200 52000 39200 4
N 49600 42700 49600 41600 4
N 49600 41600 52400 41600 4
N 52400 41600 52400 39200 4
N 49000 42700 49000 41800 4
N 49000 41800 52800 41800 4
N 52800 41800 52800 39200 4
N 52400 39900 45000 39900 4
N 45000 39900 45000 39200 4
N 52800 39700 45400 39700 4
N 45400 39700 45400 39200 4
T 50000 38100 5 10 1 0 90 0 1
RA0
T 50400 38100 5 10 1 0 90 0 1
RA1
T 50800 38100 5 10 1 0 90 0 1
RC2
T 51200 38100 5 10 1 0 90 0 1
RC1
T 51600 38100 5 10 1 0 90 0 1
RB2
T 52000 38100 5 10 1 0 90 0 1
RB3
T 52400 38000 5 10 1 0 90 0 1
RD11
T 52900 38100 5 10 1 0 90 0 1
RC3
T 45000 38000 5 10 1 0 90 0 1
RD11
T 45500 38100 5 10 1 0 90 0 1
RC3
T 41100 53100 5 10 1 0 0 0 1
5V
T 41000 52200 5 10 1 0 0 0 1
3V3
T 53400 52500 5 10 1 0 0 0 1
5V
T 53300 51600 5 10 1 0 0 0 1
3V3
T 43300 52100 9 10 1 0 0 0 1
Contrast
T 40700 52600 9 10 1 0 0 0 2
 LCD
Supply
T 53400 52000 9 10 1 0 0 0 2
  LCD
Backlight
N 44600 52500 44600 52200 4
T 45000 51100 5 10 1 0 90 0 1
RD14
T 44500 51100 5 10 1 0 90 0 1
RD15
C 43900 53000 1 0 0 resistor-1.sym
{
T 44200 53400 5 10 0 0 0 0 1
device=RESISTOR
T 44100 53300 5 10 1 1 0 0 1
refdes=R3
}
N 47000 52800 47000 52300 4
N 44800 52300 47000 52300 4
N 44800 52300 44800 53100 4
N 43900 53100 43900 52700 4
N 50100 50200 50100 50100 4
N 42500 50300 48700 50300 4
N 45500 44000 45200 44000 4
N 45200 44000 45200 50100 4
N 47000 42700 42500 42700 4
N 42500 42700 42500 49900 4
N 50500 50200 50500 49900 4
N 50500 49900 42500 49900 4
C 39900 43100 1 0 0 PICkit.sym
{
T 40100 46000 5 10 1 1 0 0 1
refdes=P1
T 40200 45950 5 10 0 0 0 0 1
device=CONNECTOR_6
T 40200 46150 5 10 0 0 0 0 1
footprint=SIP6N
}
N 49500 48700 49500 50100 4
N 43100 50200 50000 50200 4
N 40800 43900 43100 43900 4
N 43100 43900 43100 50200 4
N 51500 47000 51500 50000 4
N 51500 50000 42700 50000 4
N 40800 44300 42700 44300 4
N 42700 44300 42700 50000 4
N 51300 47000 51500 47000 4
N 50900 50200 50900 48800 4
N 50900 48800 47800 48800 4
N 47800 48500 47800 48800 4
N 48400 48500 48400 48900 4
N 48600 48500 48600 48900 4
N 51300 50200 51300 48700 4
N 48000 48700 51300 48700 4
N 48000 48500 48000 48700 4
N 51700 50200 51700 48600 4
N 48200 48600 51700 48600 4
N 48200 48500 48200 48600 4
N 52100 50200 52100 48900 4
N 48800 48900 52100 48900 4
N 48800 48500 48800 48900 4
N 52500 50200 52500 49000 4
N 49200 49000 52500 49000 4
N 49200 48500 49200 49000 4
N 52900 50200 52900 49100 4
N 49400 49100 52900 49100 4
N 49400 48500 49400 49100 4
T 50100 50900 5 10 1 0 90 0 1
RA2
T 50500 50900 5 10 1 0 90 0 1
RA3
T 50900 50900 5 10 1 0 90 0 1
RD0
T 51300 50900 5 10 1 0 90 0 1
RD1
T 51700 50900 5 10 1 0 90 0 1
RD2
T 52100 50900 5 10 1 0 90 0 1
RD3
T 52500 50900 5 10 1 0 90 0 1
RC11
T 52900 50900 5 10 1 0 90 0 1
RC10
N 48700 50300 48700 49800 4
C 41000 46300 1 0 0 switch-pushbutton-no-1.sym
{
T 41400 46600 5 10 1 1 0 0 1
refdes=S1
T 41400 46900 5 10 0 0 0 0 1
device=SWITCH_PUSHBUTTON_NO
}
C 61300 46900 1 0 0 switch-pushbutton-no-1.sym
{
T 61700 47200 5 10 1 1 0 0 1
refdes=S1
T 61700 47500 5 10 0 0 0 0 1
device=SWITCH_PUSHBUTTON_NO
}
C 59500 45900 1 0 0 switch-pushbutton-no-1.sym
{
T 59900 46200 5 10 1 1 0 0 1
refdes=S2
T 59900 46500 5 10 0 0 0 0 1
device=SWITCH_PUSHBUTTON_NO
}
C 62600 45900 1 0 0 switch-pushbutton-no-1.sym
{
T 63000 46200 5 10 1 1 0 0 1
refdes=S3
T 63000 46500 5 10 0 0 0 0 1
device=SWITCH_PUSHBUTTON_NO
}
C 61400 45000 1 0 0 switch-pushbutton-no-1.sym
{
T 61800 45300 5 10 1 1 0 0 1
refdes=S4
T 61800 45600 5 10 0 0 0 0 1
device=SWITCH_PUSHBUTTON_NO
}
N 42100 46300 42000 46300 4
N 40800 46300 41000 46300 4
T 54400 50900 5 10 1 0 90 0 1
RD5
T 54800 50900 5 10 1 0 90 0 1
RD6
T 55200 50900 5 10 1 0 90 0 1
RD7
T 55600 50900 5 10 1 0 90 0 1
RD8
T 56000 50900 5 10 1 0 90 0 1
RD9
T 56400 50900 5 10 1 0 90 0 1
RC9
T 56800 50900 5 10 1 0 90 0 1
RC8
T 57200 50900 5 10 1 0 90 0 1
RD10
N 49800 42700 49800 41900 4
N 49800 41900 56800 41900 4
N 56800 41900 56800 50200 4
N 56400 50200 56400 44600 4
N 56400 44600 51300 44600 4
N 51300 44800 56000 44800 4
N 56000 44800 56000 50200 4
N 51300 45000 55600 45000 4
N 55600 45000 55600 50300 4
N 51300 45200 55200 45200 4
N 55200 45200 55200 50200 4
N 51300 45800 54800 45800 4
N 54800 45800 54800 50200 4
N 51300 46000 54400 46000 4
N 54400 46000 54400 50200 4
N 51300 46200 54000 46200 4
N 54000 46200 54000 50200 4
C 58300 51800 1 90 0 resistor-1.sym
{
T 57900 52100 5 10 0 0 90 0 1
device=RESISTOR
T 58100 52500 5 10 1 1 180 0 1
refdes=R5
}
C 57800 51800 1 90 0 resistor-1.sym
{
T 57400 52100 5 10 0 0 90 0 1
device=RESISTOR
T 57600 52500 5 10 1 1 180 0 1
refdes=R6
}
C 58800 51800 1 90 0 resistor-1.sym
{
T 58400 52100 5 10 0 0 90 0 1
device=RESISTOR
T 58600 52500 5 10 1 1 180 0 1
refdes=R4
}
N 54300 52700 64500 52700 4
N 54300 51400 54300 53100 4
N 54300 53100 52000 53100 4
N 52000 53100 52000 52600 4
N 52000 52600 51400 52600 4
N 51400 52600 51400 52800 4
N 54300 51400 53400 51400 4
N 53400 51400 53400 49800 4
N 58700 50900 58700 44400 4
N 58700 44400 51300 44400 4
N 58200 50900 58200 46600 4
N 58200 46600 51300 46600 4
N 50000 42700 50000 42000 4
N 50000 42000 57700 42000 4
N 57700 42000 57700 50900 4
C 61700 48500 1 90 0 resistor-1.sym
{
T 61300 48800 5 10 0 0 90 0 1
device=RESISTOR
T 61500 49200 5 10 1 1 180 0 1
refdes=R7
}
C 60200 48500 1 90 0 resistor-1.sym
{
T 59800 48800 5 10 0 0 90 0 1
device=RESISTOR
T 60000 49200 5 10 1 1 180 0 1
refdes=R8
}
C 60700 48500 1 90 0 resistor-1.sym
{
T 60300 48800 5 10 0 0 90 0 1
device=RESISTOR
T 60500 49200 5 10 1 1 180 0 1
refdes=R10
}
C 61200 48500 1 90 0 resistor-1.sym
{
T 60800 48800 5 10 0 0 90 0 1
device=RESISTOR
T 61000 49200 5 10 1 1 180 0 1
refdes=R9
}
C 63200 42800 1 90 0 resistor-1.sym
{
T 62800 43100 5 10 0 0 90 0 1
device=RESISTOR
T 63000 43500 5 10 1 1 180 0 1
refdes=R11
}
C 61700 42800 1 90 0 resistor-1.sym
{
T 61300 43100 5 10 0 0 90 0 1
device=RESISTOR
T 61500 43500 5 10 1 1 180 0 1
refdes=R12
}
C 62200 42800 1 90 0 resistor-1.sym
{
T 61800 43100 5 10 0 0 90 0 1
device=RESISTOR
T 62000 43500 5 10 1 1 180 0 1
refdes=R14
}
C 62700 42800 1 90 0 resistor-1.sym
{
T 62300 43100 5 10 0 0 90 0 1
device=RESISTOR
T 62500 43500 5 10 1 1 180 0 1
refdes=R13
}
N 62300 46900 64300 46900 4
N 64300 43700 64300 46900 4
N 64300 43700 63100 43700 4
N 63600 45900 64000 45900 4
N 64000 44100 64000 45900 4
N 62600 43700 62600 44100 4
N 62600 44100 64000 44100 4
N 62400 45000 62400 44400 4
N 62400 44400 62100 44400 4
N 62100 44400 62100 43700 4
N 61600 43700 61600 44300 4
N 60500 44300 61600 44300 4
N 60500 44300 60500 45900 4
N 61300 46900 61300 47800 4
N 61300 47800 61600 47800 4
N 61600 47800 61600 48500 4
N 62600 45900 61100 45900 4
N 61100 45900 61100 48500 4
N 57300 45000 61400 45000 4
N 60800 45000 60800 47800 4
N 60600 48500 60600 47800 4
N 60600 47800 60800 47800 4
N 59500 45900 59500 47800 4
N 59500 47800 60100 47800 4
N 60100 47800 60100 48500 4
N 60100 53700 60100 49400 4
N 60100 49400 61600 49400 4
N 64500 42800 64500 52700 4
N 64500 42800 61600 42800 4
N 52800 46900 61300 46900 4
N 52800 46900 52800 46400 4
N 51300 46400 52800 46400 4
N 59500 45900 57500 45900 4
N 57500 45900 57500 49700 4
N 49600 48500 49600 49700 4
N 49600 49700 57500 49700 4
N 62600 45900 62600 45500 4
N 62600 45500 57100 45500 4
N 57100 45500 57100 49400 4
N 49800 48500 49800 49400 4
N 49800 49400 57100 49400 4
N 47200 42700 47200 40200 4
N 47200 40200 57300 40200 4
N 57300 40200 57300 45000 4
N 47600 42700 47600 41400 4
N 41900 42300 52100 42300 4
N 47400 42700 47400 42300 4
N 52100 45600 52100 42300 4
N 50000 48500 50000 50200 4
N 42100 48000 42300 48000 4
N 42300 48000 42300 45100 4
N 42300 45100 41900 45100 4
N 42100 49100 48100 49100 4
N 48400 48900 48100 48900 4
N 48100 48900 48100 49100 4
C 41200 47800 1 0 0 capacitor-1.sym
{
T 41400 48500 5 10 0 0 0 0 1
device=CAPACITOR
T 41400 48300 5 10 1 1 0 0 1
refdes=C5
T 41400 48700 5 10 0 0 0 0 1
symversion=0.1
}
C 53500 40700 1 0 0 capacitor-1.sym
{
T 53700 41400 5 10 0 0 0 0 1
device=CAPACITOR
T 53700 41200 5 10 1 1 0 0 1
refdes=C7
T 53700 41600 5 10 0 0 0 0 1
symversion=0.1
}
C 58100 41600 1 0 0 capacitor-1.sym
{
T 58300 42300 5 10 0 0 0 0 1
device=CAPACITOR
T 58300 42100 5 10 1 1 0 0 1
refdes=C6
T 58300 42500 5 10 0 0 0 0 1
symversion=0.1
}
C 53800 43300 1 0 0 capacitor-1.sym
{
T 54000 44000 5 10 0 0 0 0 1
device=CAPACITOR
T 54000 43800 5 10 1 1 0 0 1
refdes=C10
T 54000 44200 5 10 0 0 0 0 1
symversion=0.1
}
C 53800 42600 1 0 0 capacitor-1.sym
{
T 54000 43300 5 10 0 0 0 0 1
device=CAPACITOR
T 54000 43100 5 10 1 1 0 0 1
refdes=C11
T 54000 43500 5 10 0 0 0 0 1
symversion=0.1
}
C 53900 42800 1 90 0 crystal-1.sym
{
T 53400 43000 5 10 0 0 90 0 1
device=CRYSTAL
T 53500 43100 5 10 1 1 180 0 1
refdes=X1
T 53200 43000 5 10 0 0 90 0 1
symversion=0.1
}
C 41000 41400 1 0 1 led-2.sym
{
T 40400 41600 5 10 1 1 0 6 1
refdes=D4
T 40900 42000 5 10 0 0 0 6 1
device=LED
}
N 53800 43500 51300 43500 4
N 51300 43500 51300 42600 4
N 51300 42600 49400 42600 4
N 49400 42600 49400 42700 4
N 53800 42800 52600 42800 4
N 52600 42800 52600 42100 4
N 52600 42100 49200 42100 4
N 49200 42100 49200 42700 4
N 54700 43500 54700 41400 4
N 42100 47100 41200 47100 4
N 41200 47100 41200 48000 4
N 58000 40400 58000 43600 4
N 58000 43600 59000 43600 4
N 54400 40900 54400 40400 4
N 53000 41400 53000 40900 4
N 53000 40900 53500 40900 4
C 56900 38500 1 0 0 cvstitleblock-1.sym
{
T 57500 38900 5 10 1 1 0 0 1
date=2019-02-27
T 61400 38900 5 10 1 1 0 0 1
rev=3.0
T 62900 38600 5 10 1 1 0 0 1
auth=WB8RCR
T 57700 39200 5 10 1 1 0 0 1
fname=3490452146a5a9054acbac2f0a1da44c80561755
T 60700 39600 5 14 1 1 0 4 1
title=dsPIC-EL-CH
}
N 59300 41000 58000 41000 4
N 58100 41800 58000 41800 4
T 57900 38600 5 10 1 0 0 0 1
1
T 59500 38600 5 10 1 0 0 0 1
1
T 60700 50100 9 8 1 0 0 0 13
R1 51K
R2 10K2
R3 5K1
R4,R5,R6 1K5
R7,R8,R9,R10 5K1
R11,R12,R13,R14 510
R15 10K
C1,C2,C3,C4 0.01
C5,C6,C7 0.1
C8 22
C9 10
C10,C11 22p

T 62500 51900 9 8 1 0 0 0 2
Note that resistor values
are grossly non-critical
T 60100 40700 9 10 1 0 0 0 1
XH
T 60200 42500 9 10 1 0 0 0 2
micro
USB
T 57600 51000 9 10 1 0 90 0 1
red
T 58100 50800 9 10 1 0 90 0 1
yellow
T 58600 50800 9 10 1 0 90 0 1
green
T 40200 41200 9 10 1 0 0 0 1
white
T 41200 46100 9 10 1 0 0 0 1
Reset
T 61700 46700 9 10 1 0 0 0 1
Up
T 59800 45700 9 10 1 0 0 0 1
Left
T 62900 45700 9 10 1 0 0 0 1
Right
T 61600 44800 9 10 1 0 0 0 1
Down
T 39900 44300 9 10 1 0 90 0 1
PICkit
