G04 start of page 6 for group -4062 idx -4062 *
G04 Title: dsPIC-EL for dsPIC33CH128MP505, soldermask *
G04 Creator: pcb 20140316 *
G04 CreationDate: Thu 07 Feb 2019 08:34:03 PM GMT UTC *
G04 For: jjmcd *
G04 Format: Gerber/RS-274X *
G04 PCB-Dimensions (mil): 3930.00 3930.00 *
G04 PCB-Coordinate-Origin: lower left *
%MOIN*%
%FSLAX25Y25*%
%LNBOTTOMMASK*%
%ADD111R,0.0450X0.0450*%
%ADD110C,0.0560*%
%ADD109C,0.0610*%
%ADD108C,0.0650*%
%ADD107C,0.0450*%
%ADD106C,0.0310*%
%ADD105C,0.0860*%
%ADD104C,0.1660*%
%ADD103C,0.0620*%
%ADD102C,0.0060*%
%ADD101C,0.0660*%
%ADD100C,0.1400*%
%ADD99C,0.0001*%
%ADD98C,0.0960*%
G54D98*X334000Y346000D03*
G54D99*G36*
X362200Y320800D02*Y311200D01*
X371800D01*
Y320800D01*
X362200D01*
G37*
G54D98*X387000Y316000D03*
G54D99*G36*
X336200Y280800D02*Y271200D01*
X345800D01*
Y280800D01*
X336200D01*
G37*
G54D100*X303700Y256800D03*
G54D98*X361000Y276000D03*
X341000Y306000D03*
X361000D03*
G54D99*G36*
X246700Y206300D02*Y199700D01*
X253300D01*
Y206300D01*
X246700D01*
G37*
G54D101*X260000Y203000D03*
X270000D03*
X280000D03*
X290000D03*
X300000D03*
X310000D03*
X320000D03*
X180000D03*
X190000D03*
X200000D03*
X210000D03*
X220000D03*
X230000D03*
G54D99*G36*
X309200Y320800D02*Y311200D01*
X318800D01*
Y320800D01*
X309200D01*
G37*
G54D98*X334000Y316000D03*
X314000Y346000D03*
G54D100*X303700Y382500D03*
G54D102*X180000Y273000D03*
Y263000D03*
X190000Y273000D03*
Y263000D03*
X200000Y273000D03*
Y303000D03*
Y293000D03*
Y283000D03*
X210000D03*
X220000D03*
X200000Y263000D03*
X210000D03*
X220000D03*
X210000Y273000D03*
X220000D03*
Y303000D03*
Y293000D03*
X210000Y303000D03*
Y293000D03*
X180000Y283000D03*
X190000D03*
Y303000D03*
Y293000D03*
X180000Y303000D03*
Y293000D03*
G54D103*X181000Y382627D03*
G54D102*X220000Y313000D03*
X210000D03*
X200000D03*
X190000D03*
X180000D03*
G54D99*G36*
X227200Y370800D02*Y364200D01*
X233800D01*
Y370800D01*
X227200D01*
G37*
G54D101*X230500Y357500D03*
Y347500D03*
G54D98*X367000Y346000D03*
X387000D03*
G54D99*G36*
X336200Y360800D02*Y351200D01*
X345800D01*
Y360800D01*
X336200D01*
G37*
G54D98*X361000Y356000D03*
G54D104*X382000Y383000D03*
G54D98*X341000Y386000D03*
X361000D03*
G54D99*G36*
X86700Y18300D02*Y11700D01*
X93300D01*
Y18300D01*
X86700D01*
G37*
G54D101*X100000Y15000D03*
X110000D03*
X120000D03*
X130000D03*
X140000D03*
X150000D03*
X160000D03*
G54D99*G36*
X176700Y18300D02*Y11700D01*
X183300D01*
Y18300D01*
X176700D01*
G37*
G54D101*X190000Y15000D03*
G54D104*X10000Y10000D03*
G54D99*G36*
X156700Y206300D02*Y199700D01*
X163300D01*
Y206300D01*
X156700D01*
G37*
G54D101*X115000Y203000D03*
X125000D03*
X135000D03*
X145000D03*
G54D99*G36*
X51700Y206300D02*Y199700D01*
X58300D01*
Y206300D01*
X51700D01*
G37*
G54D101*X65000Y203000D03*
X75000D03*
G54D99*G36*
X2700Y228300D02*Y219700D01*
X11300D01*
Y228300D01*
X2700D01*
G37*
G54D105*X7000Y204000D03*
X37000Y224000D03*
Y204000D03*
G54D101*X200000Y15000D03*
X210000D03*
X220000D03*
X230000D03*
X240000D03*
X250000D03*
G54D104*X382000Y10000D03*
G54D99*G36*
X375200Y102300D02*Y95700D01*
X381800D01*
Y102300D01*
X375200D01*
G37*
G54D101*X378500Y109000D03*
G54D99*G36*
X331700Y99300D02*Y92700D01*
X338300D01*
Y99300D01*
X331700D01*
G37*
G36*
Y79300D02*Y72700D01*
X338300D01*
Y79300D01*
X331700D01*
G37*
G36*
X203650Y78550D02*Y75450D01*
X206750D01*
Y78550D01*
X203650D01*
G37*
G54D106*X208800Y77000D03*
G54D101*X170000Y203000D03*
G54D99*G36*
X156700Y183300D02*Y176700D01*
X163300D01*
Y183300D01*
X156700D01*
G37*
G36*
X166700D02*Y176700D01*
X173300D01*
Y183300D01*
X166700D01*
G37*
G36*
X176700D02*Y176700D01*
X183300D01*
Y183300D01*
X176700D01*
G37*
G36*
X186700D02*Y176700D01*
X193300D01*
Y183300D01*
X186700D01*
G37*
G36*
X196700D02*Y176700D01*
X203300D01*
Y183300D01*
X196700D01*
G37*
G36*
X206700D02*Y176700D01*
X213300D01*
Y183300D01*
X206700D01*
G37*
G36*
X216700D02*Y176700D01*
X223300D01*
Y183300D01*
X216700D01*
G37*
G36*
X226700D02*Y176700D01*
X233300D01*
Y183300D01*
X226700D01*
G37*
G54D107*X374051Y174453D03*
Y193547D03*
G54D108*X384482Y169729D03*
Y198271D03*
G54D99*G36*
X141762Y183204D02*Y176604D01*
X148362D01*
Y183204D01*
X141762D01*
G37*
G36*
X131722D02*Y176604D01*
X138322D01*
Y183204D01*
X131722D01*
G37*
G36*
X121682D02*Y176604D01*
X128282D01*
Y183204D01*
X121682D01*
G37*
G36*
X111860Y182985D02*Y176385D01*
X118460D01*
Y182985D01*
X111860D01*
G37*
G36*
X6700Y148300D02*Y141700D01*
X13300D01*
Y148300D01*
X6700D01*
G37*
G54D101*X10000Y135000D03*
Y125000D03*
Y115000D03*
Y105000D03*
Y95000D03*
X85000Y203000D03*
X95000D03*
X105000D03*
G54D99*G36*
X101820Y182767D02*Y176167D01*
X108420D01*
Y182767D01*
X101820D01*
G37*
G36*
X91779D02*Y176167D01*
X98379D01*
Y182767D01*
X91779D01*
G37*
G36*
X38200Y154300D02*Y147700D01*
X44800D01*
Y154300D01*
X38200D01*
G37*
G36*
X58200D02*Y147700D01*
X64800D01*
Y154300D01*
X58200D01*
G37*
G36*
X136700Y276300D02*Y269700D01*
X143300D01*
Y276300D01*
X136700D01*
G37*
G54D101*X140000Y263000D03*
X130000Y273000D03*
G54D102*X150000D03*
Y263000D03*
G54D99*G36*
X126700Y286300D02*Y279700D01*
X133300D01*
Y286300D01*
X126700D01*
G37*
G54D101*X140000Y283000D03*
G54D102*X150000D03*
X160000Y273000D03*
X170000D03*
X160000Y263000D03*
X170000D03*
G54D103*X81000Y382627D03*
X91000D03*
X101000D03*
X111000D03*
X121000D03*
X131000D03*
X141000D03*
X151000D03*
X161000D03*
X171000D03*
G54D99*G36*
X176700Y336300D02*Y329700D01*
X183300D01*
Y336300D01*
X176700D01*
G37*
G36*
X167950Y360550D02*Y354450D01*
X174050D01*
Y360550D01*
X167950D01*
G37*
G54D101*X180000Y323000D03*
G54D99*G36*
X186700Y326300D02*Y319700D01*
X193300D01*
Y326300D01*
X186700D01*
G37*
G54D101*X200000Y323000D03*
X210000D03*
X220000D03*
G54D99*G36*
X186700Y336300D02*Y329700D01*
X193300D01*
Y336300D01*
X186700D01*
G37*
G36*
X206700D02*Y329700D01*
X213300D01*
Y336300D01*
X206700D01*
G37*
G36*
X216700D02*Y329700D01*
X223300D01*
Y336300D01*
X216700D01*
G37*
G54D101*X200000Y333000D03*
G54D109*X201000Y357500D03*
G54D99*G36*
X166700Y336300D02*Y329700D01*
X173300D01*
Y336300D01*
X166700D01*
G37*
G36*
X156700D02*Y329700D01*
X163300D01*
Y336300D01*
X156700D01*
G37*
G36*
X146700D02*Y329700D01*
X153300D01*
Y336300D01*
X146700D01*
G37*
G54D101*X170000Y323000D03*
X160000D03*
X150000D03*
X140000Y303000D03*
X130000D03*
G54D99*G36*
X126700Y296300D02*Y289700D01*
X133300D01*
Y296300D01*
X126700D01*
G37*
G54D101*X140000Y293000D03*
G54D102*X160000Y283000D03*
X170000D03*
Y293000D03*
X160000D03*
X150000Y303000D03*
Y293000D03*
X170000Y303000D03*
Y313000D03*
X160000Y303000D03*
Y313000D03*
X150000D03*
G54D99*G36*
X136700Y316300D02*Y309700D01*
X143300D01*
Y316300D01*
X136700D01*
G37*
G36*
X126700D02*Y309700D01*
X133300D01*
Y316300D01*
X126700D01*
G37*
G36*
Y326300D02*Y319700D01*
X133300D01*
Y326300D01*
X126700D01*
G37*
G54D101*X140000Y323000D03*
G54D99*G36*
X116700Y296300D02*Y289700D01*
X123300D01*
Y296300D01*
X116700D01*
G37*
G54D101*X120000Y283000D03*
G54D99*G36*
X106700Y296300D02*Y289700D01*
X113300D01*
Y296300D01*
X106700D01*
G37*
G54D101*X110000Y283000D03*
X100000D03*
G54D99*G36*
X116700Y276300D02*Y269700D01*
X123300D01*
Y276300D01*
X116700D01*
G37*
G36*
X76700Y286300D02*Y279700D01*
X83300D01*
Y286300D01*
X76700D01*
G37*
G54D101*X90000Y283000D03*
G54D99*G36*
X96700Y296300D02*Y289700D01*
X103300D01*
Y296300D01*
X96700D01*
G37*
G54D100*X8000Y256800D03*
G54D99*G36*
X86700Y295800D02*Y289200D01*
X93300D01*
Y295800D01*
X86700D01*
G37*
G36*
Y316300D02*Y309700D01*
X93300D01*
Y316300D01*
X86700D01*
G37*
G54D101*X90000Y303000D03*
G54D99*G36*
X86700Y326300D02*Y319700D01*
X93300D01*
Y326300D01*
X86700D01*
G37*
G54D101*X80000Y292500D03*
G54D99*G36*
X76700Y316300D02*Y309700D01*
X83300D01*
Y316300D01*
X76700D01*
G37*
G54D101*X80000Y303000D03*
G54D99*G36*
X116700Y316300D02*Y309700D01*
X123300D01*
Y316300D01*
X116700D01*
G37*
G54D101*X120000Y303000D03*
Y323000D03*
G54D99*G36*
X106700Y326300D02*Y319700D01*
X113300D01*
Y326300D01*
X106700D01*
G37*
G54D101*X100000Y323000D03*
G54D99*G36*
X96700Y316300D02*Y309700D01*
X103300D01*
Y316300D01*
X96700D01*
G37*
G54D101*X110000Y313000D03*
G54D99*G36*
X96700Y306300D02*Y299700D01*
X103300D01*
Y306300D01*
X96700D01*
G37*
G54D101*X110000Y303000D03*
G54D100*X8000Y382500D03*
G54D99*G36*
X27900Y385727D02*Y379527D01*
X34100D01*
Y385727D01*
X27900D01*
G37*
G54D103*X41000Y382627D03*
X51000D03*
X61000D03*
X71000D03*
G54D99*G36*
X3700Y334800D02*Y328200D01*
X10300D01*
Y334800D01*
X3700D01*
G37*
G54D101*X7000Y311500D03*
X17000Y321500D03*
G54D99*G36*
X37700Y325800D02*Y319200D01*
X44300D01*
Y325800D01*
X37700D01*
G37*
G54D101*X41000Y312500D03*
Y302500D03*
G54D110*X190000Y284000D02*Y262000D01*
Y314000D02*Y292000D01*
X200000Y284000D02*Y262000D01*
Y314000D02*Y292000D01*
X210000Y284000D02*Y262000D01*
Y314000D02*Y292000D01*
X220000Y284000D02*Y262000D01*
Y314000D02*Y292000D01*
X180000Y314000D02*Y292000D01*
X170000Y314000D02*Y292000D01*
X160000Y314000D02*Y292000D01*
X150000Y314000D02*Y292000D01*
X170000Y284000D02*Y262000D01*
X180000Y284000D02*Y262000D01*
X150000Y284000D02*Y262000D01*
X160000Y284000D02*Y262000D01*
G54D111*X368500Y186559D02*X374878D01*
X368500Y189118D02*X374878D01*
X368500Y184000D02*X374878D01*
X368500Y181441D02*X374878D01*
X368500Y178882D02*X374878D01*
M02*
